1624549499999, 2009.37000000
1624550399999, 1986.12000000
1624551299999, 1981.90000000
1624552199999, 1982.47000000
1624553099999, 1999.38000000
1624553999999, 2011.41000000
1624554899999, 2025.38000000
1624555799999, 2026.29000000
1624556699999, 2020.82000000
1624557599999, 2025.96000000
1624558499999, 2017.45000000
1624559399999, 2020.15000000
1624560299999, 2018.61000000
1624561199999, 2014.99000000
1624562099999, 2013.32000000
1624562999999, 2013.74000000
1624563899999, 2011.30000000
1624564799999, 2011.73000000
1624565699999, 2015.31000000
1624566599999, 2004.82000000
1624567499999, 2009.13000000
1624568399999, 2005.29000000
1624569299999, 1999.60000000
1624570199999, 1999.27000000
1624571099999, 1992.48000000
1624571999999, 1998.89000000
1624572899999, 1988.12000000
1624573799999, 1983.33000000
1624574699999, 1977.85000000
1624575599999, 1984.06000000
1624576499999, 1985.64000000
1624577399999, 1990.78000000
1624578299999, 1981.45000000
1624579199999, 1989.47000000
1624580099999, 2003.60000000
1624580999999, 2007.34000000
1624581899999, 2000.87000000
1624582799999, 1982.81000000
1624583699999, 1969.09000000
1624584599999, 1967.93000000
1624585499999, 1977.19000000
1624586399999, 1987.83000000
1624587299999, 2012.91000000
1624588199999, 2011.27000000
1624589099999, 2013.50000000
1624589999999, 2007.16000000
1624590899999, 1997.88000000
1624591799999, 1988.54000000
1624592699999, 1991.39000000
1624593599999, 1995.77000000
1624594499999, 1992.91000000
1624595399999, 1981.25000000
1624596299999, 1977.26000000
1624597199999, 1977.35000000
1624598099999, 1974.06000000
1624598999999, 1969.76000000
1624599899999, 1970.01000000
1624600799999, 1963.75000000
1624601699999, 1965.58000000
1624602599999, 1964.60000000
1624603499999, 1966.26000000
1624604399999, 1967.00000000
1624605299999, 1953.06000000
1624606199999, 1933.80000000
1624607099999, 1930.00000000
1624607999999, 1944.01000000
1624608899999, 1924.00000000
1624609799999, 1930.59000000
1624610699999, 1929.66000000
1624611599999, 1933.34000000
1624612499999, 1946.12000000
1624613399999, 1936.48000000
1624614299999, 1915.61000000
1624615199999, 1906.05000000
1624616099999, 1909.11000000
1624616999999, 1891.44000000
1624617899999, 1876.70000000
1624618799999, 1881.83000000
1624619699999, 1865.20000000
1624620599999, 1854.56000000
1624621499999, 1868.60000000
1624622399999, 1852.31000000
1624623299999, 1867.56000000
1624624199999, 1872.84000000
1624625099999, 1858.29000000
1624625999999, 1860.06000000
1624626899999, 1845.44000000
1624627799999, 1846.35000000
1624628699999, 1856.11000000
1624629599999, 1855.27000000
1624630499999, 1872.70000000
1624631399999, 1862.00000000
1624632299999, 1820.31000000
1624633199999, 1824.26000000
1624634099999, 1806.91000000
1624634999999, 1815.31000000
1624635899999, 1835.00000000
1624636799999, 1826.81000000
1624637699999, 1830.46000000
1624638599999, 1798.43000000
1624639499999, 1816.84000000
1624640399999, 1817.16000000
1624641299999, 1826.47000000
1624642199999, 1825.62000000
1624643099999, 1799.51000000
1624643999999, 1807.06000000
1624644899999, 1825.35000000
1624645799999, 1837.28000000
1624646699999, 1841.63000000
1624647599999, 1838.69000000
1624648499999, 1843.92000000
1624649399999, 1866.73000000
1624650299999, 1855.27000000
1624651199999, 1851.71000000
1624652099999, 1845.39000000
1624652999999, 1860.52000000
1624653899999, 1863.85000000
1624654799999, 1866.88000000
1624655699999, 1844.74000000
1624656599999, 1854.83000000
1624657499999, 1861.27000000
1624658399999, 1849.08000000
1624659299999, 1851.00000000
1624660199999, 1847.64000000
1624661099999, 1826.76000000
1624661999999, 1801.93000000
1624662899999, 1815.06000000
1624663799999, 1808.47000000
1624664699999, 1826.57000000
1624665599999, 1809.05000000
1624666499999, 1805.52000000
1624667399999, 1820.84000000
1624668299999, 1829.13000000
1624669199999, 1836.85000000
1624670099999, 1818.00000000
1624670999999, 1810.87000000
1624671899999, 1805.84000000
1624672799999, 1823.62000000
1624673699999, 1827.81000000
1624674599999, 1811.83000000
1624675499999, 1816.09000000
1624676399999, 1820.83000000
1624677299999, 1820.16000000
1624678199999, 1822.94000000
1624679099999, 1826.26000000
1624679999999, 1819.27000000
1624680899999, 1821.27000000
1624681799999, 1818.78000000
1624682699999, 1826.95000000
1624683599999, 1834.69000000
1624684499999, 1841.78000000
1624685399999, 1837.36000000
1624686299999, 1829.97000000
1624687199999, 1831.98000000
1624688099999, 1838.60000000
1624688999999, 1835.98000000
1624689899999, 1814.33000000
1624690799999, 1806.24000000
1624691699999, 1777.40000000
1624692599999, 1767.42000000
1624693499999, 1753.20000000
1624694399999, 1752.26000000
1624695299999, 1729.07000000
1624696199999, 1725.52000000
1624697099999, 1728.07000000
1624697999999, 1732.71000000
1624698899999, 1724.95000000
1624699799999, 1740.99000000
1624700699999, 1758.72000000
1624701599999, 1767.45000000
1624702499999, 1765.02000000
1624703399999, 1764.46000000
1624704299999, 1750.05000000
1624705199999, 1764.92000000
1624706099999, 1786.09000000
1624706999999, 1783.67000000
1624707899999, 1801.01000000
1624708799999, 1802.07000000
1624709699999, 1794.24000000
1624710599999, 1802.98000000
1624711499999, 1797.40000000
1624712399999, 1781.82000000
1624713299999, 1784.24000000
1624714199999, 1778.37000000
1624715099999, 1754.11000000
1624715999999, 1742.31000000
1624716899999, 1730.69000000
1624717799999, 1750.17000000
1624718699999, 1776.89000000
1624719599999, 1779.86000000
1624720499999, 1773.56000000
1624721399999, 1768.99000000
1624722299999, 1773.58000000
1624723199999, 1779.22000000
1624724099999, 1747.99000000
1624724999999, 1753.19000000
1624725899999, 1748.86000000
1624726799999, 1760.83000000
1624727699999, 1761.03000000
1624728599999, 1751.34000000
1624729499999, 1757.30000000
1624730399999, 1788.71000000
1624731299999, 1795.62000000
1624732199999, 1784.76000000
1624733099999, 1781.21000000
1624733999999, 1784.09000000
1624734899999, 1790.46000000
1624735799999, 1780.98000000
1624736699999, 1786.45000000
1624737599999, 1785.27000000
1624738499999, 1763.14000000
1624739399999, 1765.59000000
1624740299999, 1768.68000000
1624741199999, 1766.12000000
1624742099999, 1756.26000000
1624742999999, 1759.00000000
1624743899999, 1761.07000000
1624744799999, 1773.33000000
1624745699999, 1777.20000000
1624746599999, 1774.41000000
1624747499999, 1784.21000000
1624748399999, 1791.78000000
1624749299999, 1792.33000000
1624750199999, 1787.47000000
1624751099999, 1796.52000000
1624751999999, 1830.10000000
1624752899999, 1839.32000000
1624753799999, 1841.41000000
1624754699999, 1833.48000000
1624755599999, 1835.13000000
1624756499999, 1844.85000000
1624757399999, 1857.30000000
1624758299999, 1869.06000000
1624759199999, 1864.99000000
1624760099999, 1859.59000000
1624760999999, 1883.23000000
1624761899999, 1880.91000000
1624762799999, 1882.63000000
1624763699999, 1878.60000000
1624764599999, 1865.67000000
1624765499999, 1876.59000000
1624766399999, 1882.89000000
1624767299999, 1875.68000000
1624768199999, 1871.08000000
1624769099999, 1875.93000000
1624769999999, 1882.10000000
1624770899999, 1880.41000000
1624771799999, 1887.99000000
1624772699999, 1871.53000000
1624773599999, 1870.00000000
1624774499999, 1877.51000000
1624775399999, 1865.43000000
1624776299999, 1856.79000000
1624777199999, 1858.89000000
1624778099999, 1861.58000000
1624778999999, 1852.74000000
1624779899999, 1868.51000000
1624780799999, 1867.18000000
1624781699999, 1866.56000000
1624782599999, 1867.72000000
1624783499999, 1865.67000000
1624784399999, 1849.36000000
1624785299999, 1852.80000000
1624786199999, 1840.50000000
1624787099999, 1821.41000000
1624787999999, 1821.16000000
1624788899999, 1823.96000000
1624789799999, 1827.80000000
1624790699999, 1823.62000000
1624791599999, 1821.20000000
1624792499999, 1820.61000000
1624793399999, 1840.19000000
1624794299999, 1833.04000000
1624795199999, 1839.90000000
1624796099999, 1840.42000000
1624796999999, 1849.29000000
1624797899999, 1857.74000000
1624798799999, 1856.40000000
1624799699999, 1856.78000000
1624800599999, 1846.67000000
1624801499999, 1844.18000000
1624802399999, 1839.43000000
1624803299999, 1825.20000000
1624804199999, 1827.74000000
1624805099999, 1837.19000000
1624805999999, 1839.76000000
1624806899999, 1836.95000000
1624807799999, 1845.97000000
1624808699999, 1836.35000000
1624809599999, 1844.26000000
1624810499999, 1841.47000000
1624811399999, 1837.61000000
1624812299999, 1833.03000000
1624813199999, 1832.37000000
1624814099999, 1826.44000000
1624814999999, 1826.44000000
1624815899999, 1827.00000000
1624816799999, 1826.09000000
1624817699999, 1812.23000000
1624818599999, 1818.95000000
1624819499999, 1820.65000000
1624820399999, 1819.64000000
1624821299999, 1822.67000000
1624822199999, 1817.33000000
1624823099999, 1820.10000000
1624823999999, 1823.30000000
1624824899999, 1823.75000000
1624825799999, 1824.86000000
1624826699999, 1821.32000000
1624827599999, 1816.06000000
1624828499999, 1826.34000000
1624829399999, 1820.51000000
1624830299999, 1824.88000000
1624831199999, 1835.29000000
1624832099999, 1878.53000000
1624832999999, 1932.96000000
1624833899999, 1949.22000000
1624834799999, 1955.00000000
1624835699999, 1945.26000000
1624836599999, 1949.01000000
1624837499999, 1959.63000000
1624838399999, 1982.69000000
1624839299999, 1972.73000000
1624840199999, 1976.61000000
1624841099999, 1981.78000000
1624841999999, 1979.00000000
1624842899999, 1985.70000000
1624843799999, 1971.57000000
1624844699999, 1967.27000000
1624845599999, 1961.50000000
1624846499999, 1965.23000000
1624847399999, 1975.09000000
1624848299999, 1975.90000000
1624849199999, 1969.65000000
1624850099999, 1969.48000000
1624850999999, 1968.89000000
1624851899999, 1969.57000000
1624852799999, 1967.81000000
1624853699999, 1973.18000000
1624854599999, 1967.99000000
1624855499999, 1970.00000000
1624856399999, 1972.83000000
1624857299999, 1979.55000000
1624858199999, 1978.47000000
1624859099999, 1967.38000000
1624859999999, 1977.34000000
1624860899999, 1985.23000000
1624861799999, 1978.95000000
1624862699999, 1977.70000000
1624863599999, 1988.41000000
1624864499999, 1998.00000000
1624865399999, 2021.40000000
1624866299999, 2034.74000000
1624867199999, 2049.96000000
1624868099999, 2054.66000000
1624868999999, 2057.57000000
1624869899999, 2064.66000000
1624870799999, 2066.44000000
1624871699999, 2051.86000000
1624872599999, 2063.51000000
1624873499999, 2047.60000000
1624874399999, 2035.35000000
1624875299999, 2017.83000000
1624876199999, 2003.94000000
1624877099999, 1986.11000000
1624877999999, 1993.98000000
1624878899999, 1988.81000000
1624879799999, 1996.51000000
1624880699999, 2008.90000000
1624881599999, 1999.97000000
1624882499999, 2004.12000000
1624883399999, 2008.48000000
1624884299999, 2008.22000000
1624885199999, 2017.27000000
1624886099999, 2012.73000000
1624886999999, 2022.22000000
1624887899999, 2011.76000000
1624888799999, 2008.85000000
1624889699999, 2016.94000000
1624890599999, 2028.53000000
1624891499999, 2031.58000000
1624892399999, 2047.00000000
1624893299999, 2081.45000000
1624894199999, 2088.05000000
1624895099999, 2091.92000000
1624895999999, 2117.14000000
1624896899999, 2121.03000000
1624897799999, 2109.83000000
1624898699999, 2096.18000000
1624899599999, 2109.80000000
1624900499999, 2101.49000000
1624901399999, 2101.83000000
1624902299999, 2078.02000000
1624903199999, 2084.68000000
1624904099999, 2082.84000000
1624904999999, 2089.27000000
1624905899999, 2084.83000000
1624906799999, 2087.05000000
1624907699999, 2092.00000000
1624908599999, 2129.71000000
1624909499999, 2125.65000000
1624910399999, 2114.89000000
1624911299999, 2108.87000000
1624912199999, 2121.70000000
1624913099999, 2128.19000000
1624913999999, 2132.12000000
1624914899999, 2130.05000000
1624915799999, 2122.76000000
1624916699999, 2122.65000000
1624917599999, 2122.87000000
1624918499999, 2090.81000000
1624919399999, 2092.09000000
1624920299999, 2095.00000000
1624921199999, 2097.91000000
1624922099999, 2063.68000000
1624922999999, 2077.07000000
1624923899999, 2080.04000000
1624924799999, 2084.39000000
1624925699999, 2090.53000000
1624926599999, 2112.69000000
1624927499999, 2127.71000000
1624928399999, 2138.52000000
1624929299999, 2134.00000000
1624930199999, 2121.17000000
1624931099999, 2116.10000000
1624931999999, 2122.58000000
1624932899999, 2128.50000000
1624933799999, 2105.64000000
1624934699999, 2098.94000000
1624935599999, 2087.73000000
1624936499999, 2099.16000000
1624937399999, 2103.67000000
1624938299999, 2100.68000000
1624939199999, 2104.05000000
1624940099999, 2118.77000000
1624940999999, 2115.28000000
1624941899999, 2123.57000000
1624942799999, 2120.98000000
1624943699999, 2108.14000000
1624944599999, 2105.92000000
1624945499999, 2103.93000000
1624946399999, 2118.08000000
1624947299999, 2115.19000000
1624948199999, 2128.00000000
1624949099999, 2156.47000000
1624949999999, 2160.68000000
1624950899999, 2163.51000000
1624951799999, 2158.32000000
1624952699999, 2138.50000000
1624953599999, 2131.00000000
1624954499999, 2125.07000000
1624955399999, 2135.23000000
1624956299999, 2147.62000000
1624957199999, 2147.62000000
1624958099999, 2138.47000000
1624958999999, 2161.84000000
1624959899999, 2158.42000000
1624960799999, 2159.72000000
1624961699999, 2147.92000000
1624962599999, 2160.09000000
1624963499999, 2168.41000000
1624964399999, 2174.21000000
1624965299999, 2183.13000000
1624966199999, 2181.74000000
1624967099999, 2182.96000000
1624967999999, 2176.75000000
1624968899999, 2170.00000000
1624969799999, 2176.00000000
1624970699999, 2183.51000000
1624971599999, 2173.96000000
1624972499999, 2194.13000000
1624973399999, 2216.80000000
1624974299999, 2224.81000000
1624975199999, 2226.24000000
1624976099999, 2220.44000000
1624976999999, 2215.37000000
1624977899999, 2233.77000000
1624978799999, 2224.20000000
1624979699999, 2225.86000000
1624980599999, 2216.01000000
1624981499999, 2202.27000000
1624982399999, 2219.34000000
1624983299999, 2216.65000000
1624984199999, 2222.22000000
1624985099999, 2224.85000000
1624985999999, 2224.32000000
1624986899999, 2230.40000000
1624987799999, 2235.00000000
1624988699999, 2235.95000000
1624989599999, 2232.57000000
1624990499999, 2227.23000000
1624991399999, 2217.15000000
1624992299999, 2220.67000000
1624993199999, 2222.54000000
1624994099999, 2223.56000000
1624994999999, 2220.00000000
1624995899999, 2213.37000000
1624996799999, 2223.00000000
1624997699999, 2225.29000000
1624998599999, 2224.58000000
