timestamp,open,high,low,close
1551225600,121.794453130025,123.654798736535,112.269778121982,118.88518290303
1551312000,118.935154029405,123.023459383665,117.694838700326,119.286326517509
1551398400,119.442199758055,121.674034707968,118.927676892129,119.392724007225
1551484800,119.320749464773,119.916018928561,115.093098429794,117.050487787576
1551571200,118.028155147511,118.856452438906,113.006395519088,115.120170196499
1551657600,115.230431445449,115.650232706495,108.901908407027,111.019225500211
1551744000,111.047821628217,122.196035486185,110.649593179989,121.293813764984
1551830400,121.211255060123,124.753639160481,118.654674269482,122.424758923729
1551916800,123.747458527121,126.68782654473,120.201849239871,122.562239540603
1552003200,122.707815325819,124.420524309483,116.621099294535,118.939242876209
1552089600,118.92282337839,123.665246778891,118.452129462425,122.735790875395
1552176000,122.694354213337,123.017463028564,119.517978407281,120.613511174182
1552262400,120.740833201221,121.219555749425,116.987645463048,118.220998106256
1552348800,118.270544685306,120.256328089243,114.664901726719,118.639637358641
1552435200,119.105346949775,119.73,116.398571897083,116.921816721846
1552521600,116.921558850441,119.89201557937,115.305894965083,117.08948417281
1552608000,117.060089836083,122.297027377888,117.060089836083,121.141578116204
1552694400,121.197535796501,127.330957972214,121.197535796501,124.231447727997
1552780800,124.128136600407,125.93,121.111948417627,122.826862760562
1552867200,123.682044266343,127.689764189486,120.818966515453,121.888383932057
1552953600,121.751155503751,123.248009477778,121.273014120758,122.439678764766
1553040000,122.432708210477,123.021536413587,120.475705075061,122.444552161921
1553126400,122.498222623295,123.176652583931,117.414778778829,118.891269296522
1553212800,118.902477772706,122.044722030441,118.592147583094,120.88727583024
1553299200,120.70389146262,122.199823108361,120.15625981405,121.090051710288
1553385600,121.140822775216,122.02893026569,119.474453341933,120.485877565504
1553472000,120.47510722904,122.48,116.865043385302,118.276130146087
1553558400,118.30879454602,120.109613076414,117.436584856811,118.921908075801
1553644800,118.911269296909,124.552934229541,118.888816772351,124.241838411585
1553731200,124.024167824778,124.054757905049,122.421624311382,122.937591810549
1553817600,122.923716392322,128.230118485785,122.757826352015,128.140083907495
1553904000,128.231918697082,130.14365063405,125.534187907377,127.138767047483
1553990400,127.106372158641,128.559106904326,125.285513985545,126.076555346429
1554076800,126.062511621892,127.479648179803,123.789579833895,126.661322810599
1554163200,126.438816762976,149.090058068639,126.34006812509,147.041898501647
1554249600,147.154379813192,159.891322344252,137.661046565881,142.270474920771
1554336000,142.877857295594,146.346472543293,137.280843561163,140.356663232497
1554422400,140.565574184624,150.109966183382,139.579087916467,148.344081027106
1554508800,148.043696265647,154.583910332795,143.495974958645,147.690224737194
1554595200,147.908612993444,157.467149841108,146.934746252222,156.430373498082
1554681600,156.03963524445,166.339990118219,155.647065570985,161.196810356947
1554768000,160.641510712576,160.757165188286,155.538875102519,156.529813121292
1554854400,156.517616408154,164.630729411246,151.198134204192,157.372354615416
1554940800,157.540919251274,157.588853545968,142.812306401566,147.173435229066
1555027200,147.149386119816,148.245843835943,142.39911933301,146.070065567464
1555113600,145.528272420239,147.243315705246,144.042671270089,145.729486908174
1555200000,145.682426282446,149.9621065,143.838737743233,148.793608033707
1555286400,149.737061333183,150.07,138.614449504534,142.02068856187
1555372800,141.757317300192,148.609631828746,141.212009713145,147.891952843844
1555459200,147.67150606085,149.191964348433,146.125210607128,147.716226086497
1555545600,147.712732372423,157.114675869739,147.516636264924,155.179067034228
1555632000,155.336386826825,155.336386826825,151.708489735845,155.030960339373
1555718400,155.086148529803,157.754702542073,152.572602098543,154.586490127667
1555804800,154.635091533801,155.338849870777,148.942961343479,151.65
1555891200,151.43990899745,152.789733403875,150.270015016521,152.21
1555977600,156.1541989378,157.63898151129,151.014432421169,152.311053647326
1556064000,151.7751102256,152.648669692817,144.200424467586,148.880449781572
1556150400,148.743691494902,149.626048206993,133.488439398171,137.309061992407
1556236800,137.161067948361,142.763985612237,134.043778645725,139.108283224964
1556323200,139.20539694226,144.415126782195,138.386015603468,141.068392449301
1556409600,141.008123651562,148.239700645712,139.192149172009,139.826223984263
1556496000,139.688341658473,140.803264383131,135.280346237136,137.592967138501
1556582400,142.53021530987,146.66282108,137.774663272319,143.897032023961
1556668800,144.058493869314,145.902065355071,140.964175235606,142.356637046096
1556755200,142.329745684715,144.060294773321,140.698732993553,142.848089068531
1556841600,142.514105607614,151.524895190828,141.87170033332,147.723338786474
1556928000,147.734483355206,150.711573235054,141.718073205457,144.816367537547
1557014400,145.104608609066,146.535731032222,140.827812211531,144.579312226834
1557100800,144.677288681179,158.532711074442,141.731798903919,153.42334460161
1557187200,154.010490624267,168.735760157136,149.019904730963,149.698177220796
1557273600,148.261699415219,156,146.551612550041,151.802457851844
1557360000,151.804065354122,154.692686919073,147.898848755998,151.89203187095
1557446400,151.84509885752,156.945819703424,149.53904560211,153.471970331931
1557532800,153.785610797728,181.236222126082,153.785610797728,170.628292427309
1557619200,171.096237663261,180.970651700833,162.384112792981,167.319523224672
1557705600,166.947158212761,183.787562180764,165.229874201874,174.174998566518
1557792000,173.926707601787,196.438391580788,173.195659559654,194.067073444547
1557878400,194.087119910712,223.396994627285,194.087119910712,222.574136377138
1557964800,221.972870642561,249.308263057774,217.322766892216,236.97197915139
1558051200,236.100100234064,240.309748013546,200.559480257678,219.684268764217
1558137600,219.933000404622,222.93932958533,208.444650940842,210.469626089259
1558224000,209.225761289823,236.766469046489,209.225761289823,234.552210762453
1558310400,233.640164697059,233.640164697059,214.358153308817,226.360963175016
1558396800,226.723348093242,236.965824005857,222.204287012075,229.412401353443
1558483200,229.282380001398,233.605126686412,218.724734186106,221.101135260992
1558569600,220.256599930717,231.54,211.824012643631,222.757804660057
1558656000,222.621622526763,231.54,220.591543309874,225.645167194533
1558742400,229.16834534851,231.54,224.744227458983,227.268154777563
1558828800,227.147291263844,241.043369324441,224.297805706745,238.617418853064
1558915200,239.278794854544,247.698354287649,236.273976165501,241.045167372923
1559001600,240.859042717725,243.157695313322,236.372040919444,240.094267288592
1559088000,239.678788033462,242.955572140205,232.849657160904,239.684077187543
1559174400,239.61039212075,253.35746067336,218.186200560662,229.257103756441
1559260800,228.399176657337,240.417939182014,222.076687689247,240.092461117189
1559347200,239.808473400902,245.955320259774,234.202918547072,237.15795468877
1559433600,236.893305054173,244.928513784723,236.893305054173,241.345984007299
1559520000,241.287852570173,241.359484693416,220.764595236528,223.050673584621
1559606400,219.410033172033,223.463667832801,208.065351220614,214.034421902279
1559692800,214.585669075589,221.768082702255,211.789329614475,219.175078673639
1559779200,218.80007714762,222.248630473245,209.347892937704,220.969630294012
1559865600,221.781905445727,224.389310725624,217.504785458938,220.622640641694
1559952000,220.337142984894,221.366985854849,213.79926476956,216.517313255746
1560038400,216.325265684104,216.776091973181,201.631922345473,205.428252945841
1560124800,204.765635751884,219.094339262126,201.653430547477,219.094339262126
1560211200,219.473803094258,219.87401263396,210.337129793031,216.560192306421
1560297600,216.831425522828,233.249508468007,214.993555328183,233.18871483169
1560384000,232.1857842859,233.754129545896,225.893125102203,226.368428271594
1560470400,226.924958653426,236.977231203202,224.158050468465,235.579169118858
1560556800,235.55916616756,243.085985318326,233.481760221666,239.762655631115
1560643200,239.770454939892,247.401533531814,234.510437833228,239.538794418147
1560729600,239.653830130873,245.367140956736,238.636555131914,243.995645929446
1560816000,244.336142350344,244.336142350344,233.495953575971,236.216252810973
1560902400,236.250321091887,241.19997791776,235.486647200401,239.421832397387
1560988800,239.427209674719,243.070019448235,236.431423907845,241.122654334281
1561075200,241.796567509491,260.377488394596,241.72887237377,260.377488394596
1561161600,259.327407099481,276.989151287405,257.960983410895,270.950520866295
1561248000,270.923918342291,279.291823174891,266.948199713473,268.890273996705
1561334400,268.217242917422,274.39490654243,259.11771525749,272.1615603741
1561420800,273.186058795761,278.94272838057,269.081414148496,278.696979878477
1561507200,277.901726587337,316.373505382516,276.75679620725,289.698759789163
1561593600,289.246850786044,295.828393103953,241.212731757784,258.008211114744
1561680000,258.017593518028,274.751646649913,255.324684222055,272.254630362339
1561766400,272.252319821198,284.206354262196,256.73360554984,279.833931272972
1561852800,280.705376742748,284.004924157835,253.287798897702,254.307067209767
1561939200,256.125667432029,265.453543582011,246.967700478531,260.155486270544
1562025600,260.795428000099,262.225930619011,240.58615820433,257.68019478582
1562112000,258.94629939395,268.593376414512,257.195967778223,267.708616044932
1562198400,267.898257466692,268.853001039448,248.784057480431,251.462590665509
1562284800,249.744587227147,262.610701609087,249.20007567687,256.379549683758
1562371200,256.651617860371,265.032701700011,254.760783259792,256.452841879856
1562457600,254.684211608007,276.747623448689,253.640643577474,273.190183310828
1562544000,273.514575179903,280.82520594643,269.733266030705,279.477543900773
1562630400,279.218936620848,283.858369318397,271.059061425177,275.019312002901
1562716800,274.492840486152,280.535734228707,252.15075594281,256.849210986198
1562803200,256.235450337992,256.235450337992,234.524640965863,239.008068697931
1562889600,238.711089811464,248.455564946252,236.848315772057,244.602575837422
1562976000,244.561806602818,244.861797296983,232.857673233056,239.80666737644
1563062400,239.534925025953,239.609038695026,199.068593955475,201.115641987065
1563148800,201.369315593561,209.224935586704,181.330931151178,203.012458327832
1563235200,203.827727461536,208.571602478208,171.691143737498,176.975489656136
1563321600,178.158756272547,195.985224033069,172.227719693918,188.285445760228
1563408000,188.57549399706,203.887115270563,184.289736688555,200.877298890179
1563494400,201.098276177899,201.149957036254,191.258635471815,197.386624093857
1563580800,199.086997075378,210.17701008879,196.845455458306,204.172567038518
1563667200,203.409593221086,204.950506757424,194.549422602541,201.02988888903
1563753600,201.74093010571,203.095705767807,189.444742342227,193.825139701668
1563840000,193.366641249856,196.471807257728,187.064349553274,190.129123420084
1563926400,190.323264167189,195.774475831224,181.493590540939,194.707548945529
1564012800,193.794064687216,202.537511855629,193.794064687216,196.688980879946
1564099200,196.768363905336,198.28,191.403796758833,197.072496909977
1564185600,196.976676043917,200.904884972654,182.217082643552,186.102244389072
1564272000,186.263707599213,191.583988126031,178.28,189.65
1564358400,190.057625437261,192.813051952324,185.827320685251,189.0180378557
1564444800,189.145782259743,192.032094710729,183.958690025434,188.114174552947
1564531200,187.894056171646,197.53103200002,187.894056171646,197.406755420824
1564617600,197.471782852914,197.496742086349,191.104895196344,196.230934496903
1564704000,196.316572952763,200.715094679898,193.5674981419,195.904114471281
1564790400,195.968592615094,201.606008780075,194.991571468313,199.388427229682
1564876800,199.577226512387,200.903735681504,195.782018725833,200.579448959321
1564963200,200.518612346856,211.479658831977,200.518612346856,207.183270053942
1565049600,206.963273448824,213.68881682704,198.708642150922,201.75154219288
1565136000,201.374447988962,205.840493323367,197.060927920557,201.66964794243
1565222400,202.131594958373,202.131594958373,192.641731433885,197.695951328669
1565308800,197.860344940441,197.860344940441,184.797370707336,187.640464974138
1565395200,188.155087932753,191.314385953537,179.459992206804,184.239159859573
1565481600,183.759360267207,193.47142561605,183.664428923978,193.228949539258
1565568000,192.553141892889,192.553141892889,187.72903187169,188.466531739224
1565654400,188.46105171603,188.464608665963,182.675972768076,186.703876018813
1565740800,186.66340820379,187.215436749096,164.119732410078,167.11113188046
1565827200,168.648789955087,170.52463937784,156.701099354078,169.598222984507
1565913600,169.301662018574,169.71740681891,161.984502076576,167.31996907454
1566000000,167.220823936457,168.487528698214,164.578605357431,167.398456007949
1566086400,167.821638005573,178.407606326451,165.624587490696,175.525488103349
1566172800,175.447808833244,183.582294964378,174.223561507771,182.976301239347
1566259200,182.816254790086,182.972204075722,175.669965567353,177.058880796523
1566345600,177.331800336036,177.564199977133,162.859557169105,168.905065953594
1566432000,171.149683060862,176.100977323701,165.214125586955,172.35490646314
1566518400,171.232023918003,177.384198690333,170.47777139165,174.421761501402
1566604800,174.361903834205,174.440048820517,167.329123243496,171.262626458209
1566691200,171.239462608757,172.722990608731,164.661600459623,167.465263036905
1566777600,167.664588734286,174.217933205542,167.541437354446,169.866949084977
1566864000,169.838381409503,170.331628115761,166.520918864054,168.934253510096
1566950400,168.926901919224,169.800229487724,150.356569421682,156.294891969889
1567036800,155.986565401838,156.57040541959,148.462825753017,152.723394071158
1567123200,153.197018913884,154.743700954955,150.32953192747,153.355902522026
1567209600,153.446767512189,158.996507495187,151.45096173677,156.731330298562
1567296000,156.660791434284,158.089338696119,153.341818602081,155.79034737336
1567382400,156.154219000504,165.20656890135,155.500817152958,163.005025334493
1567468800,163.304690970824,166.85128223078,160.408699078032,163.160400058404
1567555200,162.892316618489,164.179026898528,157.737730003884,158.555103986283
1567641600,158.291519082488,159.282723570188,154.49726835766,157.857538893271
1567728000,157.7281142207,161.855315419219,151.598458377775,153.325905535821
1567814400,153.345717083535,163.70304012948,152.854734236098,161.380408914247
1567900800,161.743698118968,166.805807855826,161.195590459694,164.764508316448
1567987200,164.793022918674,168.431218039163,159.905814396292,163.869838145053
1568073600,163.71942636906,166.989711448265,160.297018722683,162.897900771854
1568160000,162.827411337844,164.557564184287,158.674051886469,161.961929633528
1568246400,162.072365252846,165.10255948302,160.537448157221,163.703414266101
1568332800,163.837561667601,164.294992878903,160.792096760213,163.728334136614
1568419200,163.778113967966,170.673278294047,162.823631254524,170.3120027625
1568505600,170.264680776751,172.002749315945,168.330150305218,171.034153147906
1568592000,171.480377201431,181.469145744813,171.262220637691,179.818197299079
1568678400,180.078045509065,194.477603772994,178.375739862623,187.717260200564
1568764800,188.166174266787,196.917402860302,188.166174266787,190.761071702352
1568851200,189.520111583425,202.636554341261,183.762691003589,199.948003573105
1568937600,200.726462037241,200.726462037241,194.089946365116,198.095904993585
1569024000,198.32412911985,200.797882166073,194.003158760361,195.372413092751
1569110400,195.37016489954,195.398752934756,187.360222756029,191.974733654947
1569196800,192.168135630174,192.282986228974,181.256304935628,182.709546262784
1569283200,182.858849716761,184.537706250839,141.47529681322,152.44053534458
1569369600,152.216952341568,159.216054791076,148.309180822591,155.605833778697
1569456000,155.640744466525,156.614151973185,140.693792729068,151.964919313715
1569542400,152.391685691372,162.147458168403,147.779616716635,159.226086196991
1569628800,159.261937351328,160.670160008219,154.577391175467,159.100284199171
1569715200,159.100284199171,159.760630461544,151.044486598655,155.087429737849
1569801600,155.171646055547,166.209703213843,151.296247160084,166.209703213843
1569888000,166.734349625425,170.705367471258,159.835931670124,161.596654305243
1569974400,161.485249057425,165.654369326727,159.680627891587,165.220533384055
1570060800,165.441144283064,165.503782359107,155.43514793604,159.658296752303
1570147200,159.796346522473,163.436386713401,156.276408494092,160.651215982082
1570233600,160.106155168238,161.427965362639,157.206573220185,161.057348014814
1570320000,161.123272285884,161.528891230475,153.290026195218,155.398445734206
1570406400,155.259156722632,166.311316748973,153.910345259819,164.520933720595
1570492800,164.565498488001,168.688706838001,162.219850936415,165.321722095177
1570579200,165.104979452857,178.277544574943,163.803659112284,176.241822663875
1570665600,176.661582152234,177.283341554625,170.265071860592,174.131505685902
1570752000,174.515313560235,178.629478819647,162.94140242842,163.907547165326
1570838400,163.94187649122,167.471905811074,161.524137140161,163.227069224115
1570924800,163.13320457271,167.487372154043,162.371583763289,164.638247083341
1571011200,164.639716414598,undefined,undefined,undefined
1571097600,170.659832984779,170.77377812621,161.447984991259,163.906397134231
1571184000,163.714377415777,164.338462215378,155.616166077338,158.092810626344
1571270400,158.058437456518,160.963861542956,156.29166141806,159.502329367629
1571356800,159.639948813282,159.665718159989,151.74095858026,155.040562874294
1571443200,155.338310920316,156.770460752304,152.534966844053,154.270049695786
1571529600,153.94,158.298917678732,152.077692979462,157.35265710598
1571616000,156.969079191728,159.680378917961,154.270114274792,156.504426201623
1571702400,156.457836519015,157.317963647999,153.585777352521,154.176415419479
1571788800,154.176410116199,154.17693192759,138.844464497093,145.817475095367
1571875200,146.061462769352,147.786421217481,143.340449381535,144.905420040207
1571961600,144.85045502653,168.844198628128,144.85045502653,163.892443212555
1572048000,164.440666718057,178.376172095459,156.682348377102,162.043540244929
1572134400,162.097966249105,170.06477522661,159.223054387986,165.851215630585
1572220800,165.762004000902,170.949546131031,163.070523634859,164.201833919192
1572307200,164.063011169786,173.712549728649,163.934400041051,172.171859890386
1572393600,172.062549756492,172.974998224181,162.54909446211,164.55114477078
1572480000,164.549680982593,166.302427503259,159.72020670645,163.834115119363
1572566400,163.34814005774,165.59213016418,160.473893241986,164.35235261711
1572652800,164.811622214057,166.29046240303,163.269743080105,164.175142109472
1572739200,164.284732818117,165.73063530206,160.66308938857,162.955735920168
1572825600,162.932773118207,169.929693964626,161.804817276538,167.421112322108
1572912000,167.410722768322,172.950943027152,164.375067356116,170.508731356562
1572998400,170.583766968012,175.301237184924,169.959059145105,173.175837892819
1573084800,172.940369413507,173.775553754579,167.135523954091,168.767578695209
1573171200,168.879492846978,170.005118244522,164.314760449493,166.834148741636
1573257600,166.793093058652,168.789483266376,165.983105145189,168.057019394002
1573344000,167.868659574294,173.803782349523,166.681005681447,171.545629108563
1573430400,171.659854044725,172.580273081232,166.913994606367,167.450169383245
1573516800,167.452980596109,170.085867140511,165.836250921425,169.795859586776
1573603200,169.946410361161,172.083515236801,168.2173320241,170.540659116184
1573689600,170.852598479614,171.116772285247,166.359362766171,167.542026417623
1573776000,167.527958235357,168.887886458275,161.016523392557,162.810284451553
1573862400,162.894898561228,165.995106030468,162.332866310611,165.135790217976
1573948800,165.133630144088,168.488938157961,163.263474553448,166.431685765739
1574035200,166.463092296131,166.495804372928,158.186164244545,160.972306692894
1574121600,160.792579592269,161.151992347047,156.077192590902,158.751610900977
1574208000,158.783405724544,160.312816553182,156.67100693947,157.44125669906
1574294400,157.316243337596,158.491064554324,142.003358573441,145.616180356629
1574380800,145.646755314651,147.028593059853,125.473860524635,136.402854683196
1574467200,136.480952109514,140.016682890494,133.417798727463,138.23101057983
1574553600,138.627023220963,139.12035505563,126.586739885448,127.14154635011
1574640000,127.243469938021,137.779477118321,120.124229834373,133.22923931163
1574726400,132.864198280119,136.076777153317,130.856478425005,134.397347558869
1574812800,134.401880089328,141.62665111259,128.64064237721,139.089147683691
1574899200,139.157183784771,140.814741186336,135.987107879932,137.429089669592
1574985600,137.178471225572,143.218617366375,137.170800584375,140.241160586353
1575072000,140.275074562905,140.98107652894,136.422903823525,138.092416391839
1575158400,137.663360488776,138.560178118314,132.927784141198,137.26701574993
1575244800,137.468760094922,137.651362227226,132.807317999172,134.60848218057
1575331200,134.597698800206,135.511820816463,131.978885802968,133.081208356971
1575417600,133.061565060073,137.318937063705,129.765181041671,131.445207523035
1575504000,131.348838173403,134.313194420301,130.119710325302,133.251415217847
1575590400,133.599845921435,135.383357042478,131.82434568781,134.692221261979
1575676800,134.736819892454,135.234572471845,133.042775159857,133.41626674147
1575763200,133.401211106591,137.490896330657,132.662950936947,136.415372007776
1575849600,136.418597736788,136.917007541589,132.683584622209,133.257277933913
1575936000,133.257278022547,133.782040267613,130.025014313277,131.321910969953
1576022400,131.289459294012,131.96646944208,127.889056455719,128.82603866217
1576108800,129.517810820613,130.950885106133,125.308343735145,129.56639354955
1576195200,129.566393686116,130.500131549109,127.987421044661,130.185968945118
1576281600,130.185971087736,130.398652647454,127.093545548235,127.615537060355
1576368000,127.615537380538,129.357562719297,125.94944015138,127.988528896587
1576454400,127.990369552665,128.105462472749,116.528629517229,119.169954546533
1576540800,119.130685160832,119.225355249757,107.902910641397,109.394688997957
1576627200,109.479568634377,120.915148114508,104.886860325718,119.663784763284
1576713600,120.332036995335,120.710627631065,113.188053738544,115.309395014686
1576800000,115.23940556749,116.799207543764,113.360962253817,116.023572189511
1576886400,116.022648583192,116.138498305392,114.492401323438,114.92985182547
1576972800,114.922165623568,120.279561067095,114.73618234204,119.565398065466
1577059200,119.900737927589,121.808793784516,113.952825382653,115.614136715456
1577145600,115.378411115853,117.01045295246,114.537519248506,115.373590345669
1577232000,115.332016207001,115.442460855863,110.934632019645,112.668281650784
1577318400,112.73806436252,119.07103679653,112.049953726856,113.248916127126
1577404800,113.182494888337,114.078896045364,110.252705262727,113.240071077954
1577491200,113.172583697158,115.95043386833,112.90600936852,114.549696194503
1577577600,114.549696932893,123.188116966391,114.128437711816,120.298028986044
1577664000,120.097025083143,121.36887523645,116.258696973515,117.265372514346
1577750400,117.263427101112,118.736097565733,114.098461743448,115.039366311293
1577836800,114.884976292698,118.544020073164,114.595236084477,116.279846704457
1577923200,116.269660167741,116.288124163051,113.233275529326,113.678951156281
1578009600,113.704071483096,120.579952427215,112.614453432753,120.044821483986
1578096000,120.394632780492,121.711445885764,118.823104062139,120.288702910646
1578182400,120.397069233123,123.961351748124,120.395209592002,121.271303604216
1578268800,121.252722073618,129.055601616079,120.883203208596,129.050711400996
1578355200,129.175955195459,130.319869692506,124.873792579902,128.517200878026
1578441600,128.367752916088,132.507897315765,123.565146524086,126.552938908312
1578528000,126.570038255528,126.68424088071,122.05934014492,124.100988721192
1578614400,124.092532949256,130.48148451299,122.159350765565,130.011599995927
1578700800,130.031824607992,132.959562652384,127.844006283647,128.410465018883
1578787200,128.054047052598,131.433867053779,127.567442697281,131.433867053779
1578873600,132.026731389785,132.033569562029,127.87797227504,129.2146095346
1578960000,129.199615339347,152.237406771485,129.199156864469,149.107953513551
1579046400,147.124127419613,154.037724600821,143.07114365621,149.289707544272
1579132800,149.417796874457,150.00430222152,142.617771517251,147.662396346979
1579219200,147.354793981806,156.383426730325,145.626490570034,153.36107448091
1579305600,152.704452353497,161.417831874909,148.962292540763,156.896273393028
1579392000,156.769068254192,159.921352683038,146.266657938022,150.51450790378
1579478400,150.472246524903,152.705750990016,145.385369497478,150.352535022461
1579564800,150.34624777798,153.097651302327,148.723179225222,152.734400769169
1579651200,153.061129966241,154.450710146816,149.582687867739,151.240276263966
1579737600,151.47756241085,151.4775687037,143.96904047557,147.229046564141
1579824000,147.205851422747,149.037212865613,140.934660886593,147.27469080689
1579910400,147.265319239726,147.576367109919,142.981505339851,145.481270021735
1579996800,144.90411105658,152.086999021855,144.400042701982,151.972926327327
1580083200,152.363456805456,155.7196559588,149.674024405656,154.028265228748
1580169600,154.034246937431,159.872911378162,154.034246937431,159.77878251675
1580256000,160.001988883807,161.971192968733,157.505999258487,157.505999258487
1580342400,157.572188881052,169.333341419712,154.94434991002,167.332423778926
1580428800,167.243488149006,168.121846434556,158.447105798971,161.966038112055
1580515200,162.007871714112,165.798865897173,161.595753992475,165.519707788116
1580601600,165.519747160969,174.01418327073,162.061940583929,169.883680522937
1580688000,169.808635856349,175.735454815094,168.953350874906,171.676942098375
1580774400,171.661742546458,172.959706451497,167.087865930584,170.692453762667
1580860800,170.589874707114,188.995362310425,170.213448587169,185.25721448897
1580947200,185.394726403682,196.59801145334,182.85850337214,193.997426625737
1581033600,194.180072974506,204.915880589928,194.180072974506,204.16356841559
1581120000,204.082609579644,208.173023955999,195.578234811915,204.171305817749
1581206400,204.069255062944,210.791567339227,204.069255062944,209.048655492776
1581292800,208.919482158955,209.567321078006,197.986185716493,204.77257131489
1581379200,204.541694009235,219.300560309127,200.02269911177,217.957450229132
1581465600,218.173359574261,253.550154635093,218.173359574261,244.806865949267
1581552000,244.691177497259,256.280537002837,236.061604115802,248.085169035515
1581638400,248.19106961717,264.808057258331,240.699592108325,264.010732565981
1581724800,264.11077527667,266.843104346392,242.59505695589,244.576742981411
1581811200,244.622079852835,253.161097087582,219.074568096495,240.540923315582
1581897600,239.510928128616,247.964035265796,224.276573482872,247.107496219393
1581984000,248.071547418641,265.42469919565,241.237810449089,262.029691576971
1582070400,262.273974382559,265.819033267878,236.55079917844,239.892988243368
1582156800,239.573112277948,244.497969680088,229.812365167904,238.904321199342
1582243200,238.978951767131,247.476767984965,236.283004700326,245.11404110581
1582329600,245.067004529176,246.208887235413,237.65049071366,242.027179365712
1582416000,241.834551536953,254.791405937,241.644688821736,254.569510715187
1582502400,254.217612711991,256.03302877383,236.490560998352,245.246415441951
1582588800,245.462869623152,245.462869623152,225.083546906562,226.679110249336
1582675200,225.744330840363,229.817541206094,199.856597864036,206.270382883535
1582761600,205.860276926482,217.564142109519,192.960743764437,206.59061232533
1582848000,207.099377399567,213.22565612315,194.951023612454,206.173740321059
1582934400,206.219989080624,211.609297442539,197.929031797107,197.929031797107
1583020800,198.166787067831,206.36314459968,192.70720000241,197.709890770709
1583107200,197.446849651534,210.286895404927,195.750021098729,208.331051778331
1583193600,208.452209801121,209.613818183873,197.471358599079,200.376441725173
1583280000,200.650209958104,205.09738973659,198.797752390325,201.805226963331
1583366400,201.850521273706,209.649646261417,201.850521273706,204.010887351454
1583452800,203.620379306478,217.856507546245,203.380504787125,217.856507546245
1583539200,218.288938677757,223.611773857145,210.076399432188,210.934624963929
1583625600,210.053783156795,210.053783156795,172.837531030797,174.780391257428
1583712000,177.38059756851,183.044138632934,166.284341813608,178.001321189417
1583798400,178.319845709468,181.481234598108,173.007693682302,177.180167551891
1583884800,177.400739912405,179.430097389885,161.312900925028,172.919553622065
1583971200,172.9989938609,173.542966678852,94.2380071594071,97.9102623096407
1584057600,100.660126604231,126.803375097261,81.2752823721434,122.044229478733
1584144000,121.809785514594,122.534083090883,109.664419002984,110.642902877491
1584230400,110.926241884735,119.829090220722,108.874523315058,111.347532302446
1584316800,111.00363128356,111.900660934948,91.6243508448038,99.5763814932339
1584403200,100.415927414876,109.57765954986,98.536410058392,106.39612530344
1584489600,106.055209471743,108.463721932239,101.487214225167,108.347829027423
1584576000,108.52945074859,134.706061476732,106.769682992186,129.127601758558
1584662400,129.269717137826,142.848157278099,109.637886517665,125.11495960466
1584748800,125.104396704222,129.049992556159,118.279899065484,124.814647317542
1584835200,124.344203339995,128.666727862311,114.258709508258,114.846125972347
1584921600,114.974080354011,127.871870371375,112.707374839703,127.140453143894
1585008000,127.032756326794,132.797027124905,123.515646756868,128.891346779055
1585094400,128.677848605106,131.941342680743,123.476687590341,125.530859226399
1585180800,126.334745167977,127.450896818923,121.959234251948,126.008437454241
1585267200,126.135435979263,128.278734240797,117.455929522609,118.459797781812
1585353600,117.189854563951,119.936638991494,113.072712127191,118.274791242143
1585440000,118.140324805255,118.696420336849,111.519507109608,112.011455925192
1585526400,112.019571930686,122.388787292773,111.712431063465,120.01398845957
1585612800,119.897921818608,122.832725108837,118.615882669693,121.153504440111
1585699200,121.048941304738,125.150663773031,118.284548142093,124.176347235635
1585785600,125.787576802176,137.882618360709,124.021685488874,130.215082516072
1585872000,129.664124784525,136.02340933525,128.117626136195,131.070268580492
1585958400,130.95882335159,135.321395471532,129.000840289664,133.79037619877
1586044800,134.241565040983,135.047405409421,130.841139292918,132.455004988338
1586131200,132.451709773326,159.006595600839,132.346925686344,159.006595600839
1586217600,158.435811832522,163.257936756857,149.553882319482,151.195340661924
1586304000,151.130111074425,160.56287282252,150.42540455972,159.530033555184
1586390400,159.214465418785,159.885608780289,152.824247450407,155.738383922213
1586476800,155.624981664704,156.088410224034,139.885715262648,144.734383397155
1586563200,145.404617049157,147.726232919651,141.29446655303,145.23968019188
1586649600,145.329370286542,151.59734504165,142.387729667777,145.671161650182
1586736000,144.523384939893,146.142250570067,137.970424406537,143.696673686703
1586822400,143.663810763361,147.888597816465,142.762646204959,144.438899968473
1586908800,144.469197872296,147.334294767175,139.913063750927,140.497504570213
1586995200,138.798895148639,161.064484660634,136.753916453463,158.793973842071
1587081600,159.184226276031,161.009714881289,155.40807511651,157.427909716633
1587168000,157.391983875347,174.584580590309,157.391983875347,172.86392273266
1587254400,172.813022674964,173.576266217729,162.987593402291,166.231056407599
1587340800,165.960527625883,171.72649464946,154.395064921026,157.183290819474
1587427200,157.112085011111,161.318853365424,155.858732036549,157.615312152373
1587513600,157.426316897105,170.191407679914,156.96212242236,169.044665783198
1587600000,169.514571791622,177.686981755971,165.227818411299,171.832280073681
1587686400,171.649014589386,176.59792147816,171.614712897429,173.482592529044
1587772800,173.390448896623,182.681769222231,172.293796729365,179.940222867893
1587859200,179.642966475079,184.981692039793,178.473025725997,182.727690108053
1587945600,183.834996731822,184.003134504835,176.312089639663,182.030792483497
1588032000,182.035180449334,183.089491214511,178.280909520887,182.417039243376
1588118400,181.99470778128,201.809322561537,181.866105971084,198.22747972403
1588204800,198.023084851876,209.59101553181,185.131283044652,189.285376554586
1588291200,188.941307754247,198.477865102209,188.941307754247,193.126152681625
1588377600,193.060180167537,196.023065822932,191.881008632343,195.026336429545
1588464000,195.017829144319,199.434292020046,188.019357514021,191.642543995462
1588550400,191.76807325124,192.522045864754,178.842115382559,189.73944358473
1588636800,189.960855699855,193.878924580239,186.433969789642,189.678836338162
1588723200,189.703365208632,195.437796941117,184.21196742242,184.680577645118
1588809600,184.447079604922,198.315169160344,183.13892554496,196.011800635614
1588896000,195.88197494057,199.541782563328,191.673415928253,194.916203449013
1588982400,195.088815385515,197.883383391114,192.636261539578,193.889407079958
1589068800,193.861166811528,193.885173155824,167.028555866205,173.903765391857
1589155200,174.135501670458,179.258504012081,163.878483864558,172.792513147655
1589241600,172.181949120641,177.415489334357,172.179047436079,175.053508508582
1589328000,175.211534654739,186.064125022469,174.271783727505,184.703399391084
1589414400,185.001331586584,190.797522771198,181.711984869,187.989432083921
1589500800,188.43338831484,188.731130656614,177.507323200252,179.85659894803
1589587200,179.947059177351,187.850613283064,178.809087405588,185.530266259855
1589673600,185.486023582975,193.509710233568,184.874914782067,190.996725993469
1589760000,191.117535278547,199.517494492074,191.117535278547,196.830292542201
1589846400,196.827417628587,196.827417628587,192.158258201555,196.452947257586
1589932800,196.484094421619,196.813427544935,188.730513901031,191.553031691416
1590019200,191.480885477557,192.973525048168,174.981113338526,181.297324518436
1590105600,181.136706116891,192.084369265242,179.619849278955,190.296564535959
1590192000,190.582023695605,193.69594455272,188.130139302489,189.576715654939
1590278400,189.512646574934,193.171948913401,184.159786241016,184.159786241016
1590364800,182.771771805504,188.994467360567,182.676923746899,187.548679702256
1590451200,187.532413006332,188.042700606792,180.069247426927,183.31204343023
1590537600,183.246746793084,189.208643444171,183.239133127964,188.997016672534
1590624000,189.158511947393,198.898777294908,186.203035863338,198.160539022928
1590710400,199.585282080533,202.37566920827,195.520649516628,198.877286679529
1590796800,198.867046337165,221.691176334107,197.351477349687,218.626702144778
1590883200,218.774067219271,220.349422306909,207.253321311849,208.526576664727
1590969600,208.092858955637,224.519777541079,207.96419878864,221.191642860117
1591056000,221.566069074142,226.608113881687,203.619158904164,212.893174289185
1591142400,212.550840782448,217.932597841169,209.239924196834,217.764272896485
1591228800,217.976882697591,219.740494955203,211.533316038755,214.939607316368
1591315200,214.935375524569,218.262437059658,212.215299653624,213.026629094041
1591401600,212.940267022194,216.689394071028,211.557357224893,214.596791436136
1591488000,214.574650555329,217.050747372806,209.009572006233,216.049327761274
1591574400,216.441181355202,218.886892351817,213.990762561607,217.913323926991
1591660800,219.027989336295,220.50281723781,211.949255508065,215.399420439359
1591747200,215.372904779034,219.401858615348,213.474663859146,218.181876235283
1591833600,218.531176906552,219.613214884344,199.71790238927,204.600024112418
1591920000,203.642012351989,211.747706173487,202.44508597846,211.137902857092
1592006400,211.17441929653,211.849885011472,208.624387977702,211.556253846696
1592092800,211.568838582568,211.784384821404,204.846922294477,206.095146293428
1592179200,205.607864245811,206.553869670598,194.58719633269,203.786814715994
1592265600,203.803953600946,209.233414546841,202.076848416851,208.869690080904
1592352000,209.025893549817,211.060844335877,203.139280624957,208.117101936508
1592438400,208.015303778168,208.381412305274,203.49913338747,206.59362422073
1592524800,206.423564576719,206.626858034359,202.3969463194,204.77111948261
1592611200,204.671498766797,206.429767562942,202.351733443218,204.683315143699
1592697600,204.690022451489,206.660973291063,203.14922545242,203.893761626761
1592784000,203.846966675644,218.744419709551,203.569132064524,215.635398137492
1592870400,215.754634672457,216.803556100397,213.460982191708,215.039605302139
1592956800,215.075220604213,220.063905985797,205.573250267465,208.774479850662
1593043200,208.577298007482,209.992560831859,202.718345046669,207.369776056449
1593129600,207.018111365719,208.093052550921,203.59499964627,204.796039175828
1593216000,204.885281366495,206.383312176548,193.718312795573,197.371898341849
1593302400,197.335086466366,203.102647818574,194.931966345716,200.640724698798
1593388800,200.817892502097,204.381886189551,196.962365142327,202.652672716167
1593475200,202.650476531519,203.505899945073,199.113475131737,201.11150879068
1593561600,201.11330380518,207.033706928929,199.805543409969,205.642045486326
1593648000,205.566909985425,206.356297704451,199.024158404848,201.866085141128
1593734400,201.799764038207,203.537340630761,199.974699145625,200.498855336007
1593820800,200.398710018321,204.943628771445,200.070489504085,203.7293756608
1593907200,203.793208938716,204.425132901311,198.981512212518,202.8811400565
1593993600,202.658418928029,213.680125180418,201.895141732961,213.616706608748
1594080000,213.506212416888,215.237181897653,208.574289741938,212.419090638087
1594166400,212.485720907904,219.791059471865,211.400017784631,218.139458529308
1594252800,218.083132508879,218.698395230789,211.407747514721,214.485758974147
1594339200,214.74016492987,214.874289466994,210.279777848577,213.669247600161
1594425600,213.906453139968,214.14411991494,210.697808196171,212.166759815509
1594512000,212.33870658229,215.891985260574,210.164732589381,214.975006959742
1594598400,215.334039051686,216.556931836409,209.727718449022,211.459710237579
1594684800,211.211555328948,212.604267989262,209.348941935344,210.908052089404
1594771200,210.911011520821,211.526662903398,207.974177246804,209.059483848821
1594857600,209.06160913507,209.603356530848,202.415294419367,205.218100952758
