1609644599999, 32677.06000000
1609645499999, 32602.86000000
1609646399999, 32617.16000000
1609647299999, 32666.53000000
1609648199999, 32611.99000000
1609649099999, 32754.12000000
1609649999999, 33231.42000000
1609650899999, 33844.96000000
1609651799999, 34010.24000000
1609652699999, 33976.20000000
1609653599999, 33781.84000000
1609654499999, 33831.73000000
1609655399999, 33881.57000000
1609656299999, 34017.46000000
1609657199999, 33999.84000000
1609658099999, 34025.80000000
1609658999999, 34517.98000000
1609659899999, 34674.04000000
1609660799999, 34489.08000000
1609661699999, 34129.02000000
1609662599999, 34446.99000000
1609663499999, 34669.99000000
1609664399999, 34404.03000000
1609665299999, 34273.63000000
1609666199999, 34055.92000000
1609667099999, 34097.16000000
1609667999999, 34220.57000000
1609668899999, 34082.02000000
1609669799999, 33768.81000000
1609670699999, 33966.05000000
1609671599999, 33911.10000000
1609672499999, 34122.18000000
1609673399999, 33959.83000000
1609674299999, 34137.26000000
1609675199999, 34437.38000000
1609676099999, 34535.67000000
1609676999999, 34321.49000000
1609677899999, 34159.85000000
1609678799999, 34132.24000000
1609679699999, 34377.45000000
1609680599999, 34201.56000000
1609681499999, 34084.73000000
1609682399999, 33915.89000000
1609683299999, 34089.13000000
1609684199999, 33978.35000000
1609685099999, 33940.01000000
1609685999999, 33892.59000000
1609686899999, 33424.70000000
1609687799999, 33081.75000000
1609688699999, 33432.07000000
1609689599999, 33561.75000000
1609690499999, 33673.46000000
1609691399999, 33465.14000000
1609692299999, 33277.72000000
1609693199999, 32725.49000000
1609694099999, 32621.82000000
1609694999999, 33106.73000000
1609695899999, 33041.59000000
1609696799999, 32927.41000000
1609697699999, 33006.26000000
1609698599999, 32548.52000000
1609699499999, 32621.95000000
1609700399999, 32780.12000000
1609701299999, 32851.60000000
1609702199999, 32631.88000000
1609703099999, 32503.17000000
1609703999999, 32781.34000000
1609704899999, 33313.24000000
1609705799999, 33714.95000000
1609706699999, 33615.71000000
1609707599999, 33746.47000000
1609708499999, 33698.84000000
1609709399999, 33748.04000000
1609710299999, 33765.81000000
1609711199999, 33585.52000000
1609712099999, 33300.00000000
1609712999999, 33534.31000000
1609713899999, 33300.76000000
1609714799999, 33164.37000000
1609715699999, 33431.12000000
1609716599999, 33552.41000000
1609717499999, 33366.83000000
1609718399999, 33071.12000000
1609719299999, 32810.48000000
1609720199999, 32834.83000000
1609721099999, 32679.39000000
1609721999999, 32885.10000000
1609722899999, 32802.88000000
1609723799999, 32733.20000000
1609724699999, 33139.93000000
1609725599999, 33232.56000000
1609726499999, 33240.25000000
1609727399999, 33119.04000000
1609728299999, 33202.34000000
1609729199999, 33506.62000000
1609730099999, 33453.01000000
1609730999999, 33360.72000000
1609731899999, 33316.87000000
1609732799999, 33580.33000000
1609733699999, 33525.06000000
1609734599999, 33365.08000000
1609735499999, 33314.89000000
1609736399999, 33332.19000000
1609737299999, 33256.20000000
1609738199999, 33311.94000000
1609739099999, 33119.12000000
1609739999999, 32895.05000000
1609740899999, 33114.03000000
1609741799999, 33358.17000000
1609742699999, 33147.51000000
1609743599999, 33280.47000000
1609744499999, 32921.06000000
1609745399999, 32439.49000000
1609746299999, 32072.46000000
1609747199999, 32129.24000000
1609748099999, 32452.09000000
1609748999999, 32195.77000000
1609749899999, 31777.77000000
1609750799999, 32055.28000000
1609751699999, 31724.87000000
1609752599999, 31588.71000000
1609753499999, 30939.39000000
1609754399999, 31024.18000000
1609755299999, 29786.00000000
1609756199999, 29079.16000000
1609757099999, 29728.69000000
1609757999999, 30262.81000000
1609758899999, 29926.18000000
1609759799999, 30219.68000000
1609760699999, 30256.86000000
1609761599999, 30753.85000000
1609762499999, 30927.31000000
1609763399999, 31056.23000000
1609764299999, 31281.30000000
1609765199999, 31241.41000000
1609766099999, 30951.12000000
1609766999999, 31171.49000000
1609767899999, 31007.62000000
1609768799999, 31430.17000000
1609769699999, 31585.77000000
1609770599999, 31762.63000000
1609771499999, 31947.18000000
1609772399999, 32143.87000000
1609773299999, 31855.60000000
1609774199999, 32067.32000000
1609775099999, 31875.54000000
1609775999999, 31772.93000000
1609776899999, 31264.59000000
1609777799999, 31096.04000000
1609778699999, 31189.01000000
1609779599999, 31332.74000000
1609780499999, 31011.13000000
1609781399999, 31027.51000000
1609782299999, 30829.50000000
1609783199999, 31031.77000000
1609784099999, 31185.85000000
1609784999999, 31444.34000000
1609785899999, 31330.90000000
1609786799999, 31171.11000000
1609787699999, 31141.13000000
1609788599999, 31418.13000000
1609789499999, 31686.65000000
1609790399999, 31678.38000000
1609791299999, 31561.47000000
1609792199999, 31394.36000000
1609793099999, 31385.22000000
1609793999999, 31267.47000000
1609794899999, 31587.74000000
1609795799999, 31108.13000000
1609796699999, 30928.62000000
1609797599999, 31036.04000000
1609798499999, 31225.00000000
1609799399999, 31325.02000000
1609800299999, 31484.67000000
1609801199999, 31357.42000000
1609802099999, 31308.98000000
1609802999999, 31775.48000000
1609803899999, 31916.71000000
1609804799999, 32015.40000000
1609805699999, 32518.53000000
1609806599999, 32349.32000000
1609807499999, 32838.94000000
1609808399999, 32461.76000000
1609809299999, 32482.56000000
1609810199999, 32568.08000000
1609811099999, 32561.03000000
1609811999999, 32816.00000000
1609812899999, 32728.87000000
1609813799999, 32540.82000000
1609814699999, 32328.22000000
1609815599999, 32344.34000000
1609816499999, 32498.99000000
1609817399999, 31915.98000000
1609818299999, 31751.86000000
1609819199999, 31213.13000000
1609820099999, 30734.23000000
1609820999999, 31279.25000000
1609821899999, 31423.10000000
1609822799999, 30883.64000000
1609823699999, 31096.27000000
1609824599999, 30987.49000000
1609825499999, 30875.42000000
1609826399999, 30448.73000000
1609827299999, 30041.59000000
1609828199999, 30549.51000000
1609829099999, 30935.95000000
1609829999999, 31137.78000000
1609830899999, 31137.34000000
1609831799999, 31126.37000000
1609832699999, 31098.96000000
1609833599999, 30828.00000000
1609834499999, 31376.55000000
1609835399999, 31217.39000000
1609836299999, 31041.39000000
1609837199999, 31210.02000000
1609838099999, 31346.00000000
1609838999999, 31468.71000000
1609839899999, 31786.00000000
1609840799999, 31585.71000000
1609841699999, 31519.43000000
1609842599999, 31595.69000000
1609843499999, 31260.92000000
1609844399999, 31363.92000000
1609845299999, 31439.46000000
1609846199999, 31415.19000000
1609847099999, 31691.63000000
1609847999999, 31797.66000000
1609848899999, 31870.80000000
1609849799999, 31825.73000000
1609850699999, 31810.81000000
1609851599999, 31616.88000000
1609852499999, 31862.84000000
1609853399999, 31736.76000000
1609854299999, 31836.72000000
1609855199999, 31485.36000000
1609856099999, 31403.03000000
1609856999999, 31557.33000000
1609857899999, 31967.46000000
1609858799999, 32375.67000000
1609859699999, 32105.00000000
1609860599999, 32198.01000000
1609861499999, 31998.80000000
1609862399999, 32143.93000000
1609863299999, 32273.18000000
1609864199999, 32553.69000000
1609865099999, 32523.96000000
1609865999999, 32520.88000000
1609866899999, 32474.34000000
1609867799999, 32372.30000000
1609868699999, 32487.05000000
1609869599999, 32801.64000000
1609870499999, 33216.33000000
1609871399999, 33134.58000000
1609872299999, 33389.56000000
1609873199999, 33449.40000000
1609874099999, 33599.75000000
1609874999999, 33924.67000000
1609875899999, 33814.97000000
1609876799999, 33798.92000000
1609877699999, 33627.59000000
1609878599999, 33887.17000000
1609879499999, 33950.97000000
1609880399999, 34047.66000000
1609881299999, 33907.83000000
1609882199999, 33929.62000000
1609883099999, 33906.34000000
1609883999999, 33795.83000000
1609884899999, 34147.18000000
1609885799999, 34221.66000000
1609886699999, 34463.89000000
1609887599999, 34297.67000000
1609888499999, 34157.29000000
1609889399999, 33925.19000000
1609890299999, 33977.62000000
1609891199999, 34048.81000000
1609892099999, 33895.28000000
1609892999999, 33681.21000000
1609893899999, 33869.36000000
1609894799999, 33972.14000000
1609895699999, 33951.82000000
1609896599999, 33780.61000000
1609897499999, 33717.58000000
1609898399999, 33862.96000000
1609899299999, 34055.83000000
1609900199999, 33975.52000000
1609901099999, 34038.71000000
1609901999999, 33935.07000000
1609902899999, 33946.35000000
1609903799999, 33788.13000000
1609904699999, 33802.17000000
1609905599999, 34195.75000000
1609906499999, 34652.62000000
1609907399999, 35624.74000000
1609908299999, 35282.23000000
1609909199999, 35462.72000000
1609910099999, 35361.79000000
1609910999999, 35248.43000000
1609911899999, 34791.72000000
1609912799999, 35097.00000000
1609913699999, 35214.34000000
1609914599999, 35231.19000000
1609915499999, 35007.14000000
1609916399999, 35246.88000000
1609917299999, 35118.92000000
1609918199999, 35138.36000000
1609919099999, 34948.56000000
1609919999999, 34765.02000000
1609920899999, 34756.07000000
1609921799999, 34267.11000000
1609922699999, 34533.86000000
1609923599999, 34650.85000000
1609924499999, 34089.77000000
1609925399999, 34012.11000000
1609926299999, 34127.61000000
1609927199999, 33983.83000000
1609928099999, 34380.88000000
1609928999999, 34286.30000000
1609929899999, 34448.96000000
1609930799999, 34506.93000000
1609931699999, 35060.00000000
1609932599999, 34807.39000000
1609933499999, 34878.97000000
1609934399999, 35027.93000000
1609935299999, 35078.35000000
1609936199999, 34984.07000000
1609937099999, 34691.13000000
1609937999999, 35023.07000000
1609938899999, 34671.23000000
1609939799999, 34676.00000000
1609940699999, 34553.54000000
1609941599999, 34646.52000000
1609942499999, 34219.21000000
1609943399999, 34481.56000000
1609944299999, 34624.94000000
1609945199999, 34321.66000000
1609946099999, 34647.07000000
1609946999999, 34749.35000000
1609947899999, 34833.53000000
1609948799999, 34667.87000000
1609949699999, 35022.40000000
1609950599999, 34868.25000000
1609951499999, 34814.74000000
1609952399999, 34700.56000000
1609953299999, 34868.65000000
1609954199999, 35006.19000000
1609955099999, 35144.17000000
1609955999999, 35013.63000000
1609956899999, 35290.23000000
1609957799999, 35079.49000000
1609958699999, 35289.95000000
1609959599999, 35321.91000000
1609960499999, 35674.13000000
1609961399999, 35750.47000000
1609962299999, 35721.59000000
1609963199999, 34935.07000000
1609964099999, 34412.10000000
1609964999999, 35291.60000000
1609965899999, 35499.23000000
1609966799999, 36149.42000000
1609967699999, 36368.89000000
1609968599999, 36113.80000000
1609969499999, 36050.98000000
1609970399999, 35953.58000000
1609971299999, 36163.87000000
1609972199999, 36357.19000000
1609973099999, 36316.35000000
1609973999999, 36088.52000000
1609974899999, 36348.49000000
1609975799999, 36318.42000000
1609976699999, 36810.31000000
1609977599999, 36851.55000000
1609978499999, 36713.43000000
1609979399999, 37087.21000000
1609980299999, 37280.77000000
1609981199999, 37252.91000000
1609982099999, 37010.52000000
1609982999999, 37015.81000000
1609983899999, 36968.46000000
1609984799999, 36979.50000000
1609985699999, 36889.47000000
1609986599999, 36764.09000000
1609987499999, 36933.88000000
1609988399999, 37054.37000000
1609989299999, 37213.90000000
1609990199999, 37730.84000000
1609991099999, 37767.78000000
1609991999999, 37566.96000000
1609992899999, 37416.99000000
1609993799999, 37346.60000000
1609994699999, 37614.39000000
1609995599999, 37571.40000000
1609996499999, 37466.63000000
1609997399999, 37607.75000000
1609998299999, 37478.23000000
1609999199999, 37487.11000000
1610000099999, 37372.66000000
1610000999999, 36940.68000000
1610001899999, 37156.23000000
1610002799999, 37227.62000000
1610003699999, 37371.08000000
1610004599999, 37197.47000000
1610005499999, 37136.72000000
1610006399999, 36925.36000000
1610007299999, 36893.27000000
1610008199999, 36917.66000000
1610009099999, 37257.97000000
1610009999999, 37267.60000000
1610010899999, 37065.94000000
1610011799999, 37104.58000000
1610012699999, 37303.05000000
1610013599999, 37531.26000000
1610014499999, 37297.40000000
1610015399999, 37165.07000000
1610016299999, 37061.35000000
1610017199999, 37092.57000000
1610018099999, 37282.11000000
1610018999999, 37231.47000000
1610019899999, 37440.85000000
1610020799999, 37874.47000000
1610021699999, 37913.21000000
1610022599999, 38011.00000000
1610023499999, 37988.54000000
1610024399999, 37996.49000000
1610025299999, 38337.52000000
1610026199999, 38405.61000000
1610027099999, 38275.34000000
1610027999999, 38236.43000000
1610028899999, 38579.99000000
1610029799999, 38550.00000000
1610030699999, 38443.26000000
1610031599999, 38510.39000000
1610032499999, 38239.86000000
1610033399999, 38367.50000000
1610034299999, 38694.66000000
1610035199999, 39057.04000000
1610036099999, 39140.51000000
1610036999999, 39239.36000000
1610037899999, 39283.71000000
1610038799999, 39179.96000000
1610039699999, 39439.97000000
1610040599999, 39722.75000000
1610041499999, 39684.11000000
1610042399999, 39774.56000000
1610043299999, 40211.03000000
1610044199999, 39110.28000000
1610045099999, 37920.00000000
1610045999999, 38924.00000000
1610046899999, 38233.16000000
1610047799999, 38712.08000000
1610048699999, 39171.87000000
1610049599999, 39074.27000000
1610050499999, 38890.69000000
1610051399999, 38415.72000000
1610052299999, 39000.00000000
1610053199999, 39134.55000000
1610054099999, 39406.47000000
1610054999999, 39503.77000000
1610055899999, 39797.64000000
1610056799999, 39734.86000000
1610057699999, 39650.81000000
1610058599999, 39749.02000000
1610059499999, 39736.89000000
1610060399999, 39696.10000000
1610061299999, 38967.59000000
1610062199999, 38922.23000000
1610063099999, 38968.60000000
1610063999999, 39488.00000000
1610064899999, 39642.17000000
1610065799999, 39498.02000000
1610066699999, 39246.87000000
1610067599999, 38848.73000000
1610068499999, 38797.78000000
1610069399999, 38558.34000000
1610070299999, 38257.59000000
1610071199999, 38718.51000000
1610072099999, 38194.33000000
1610072999999, 37857.38000000
1610073899999, 36681.92000000
1610074799999, 37207.84000000
1610075699999, 38032.75000000
1610076599999, 38248.94000000
1610077499999, 38132.54000000
1610078399999, 38389.28000000
1610079299999, 38581.17000000
1610080199999, 38741.24000000
1610081099999, 38805.80000000
1610081999999, 38719.25000000
1610082899999, 38484.73000000
1610083799999, 38405.28000000
1610084699999, 38430.21000000
1610085599999, 38006.62000000
1610086499999, 38248.11000000
1610087399999, 38595.61000000
1610088299999, 38404.63000000
1610089199999, 38554.05000000
1610090099999, 38375.28000000
1610090999999, 38936.47000000
1610091899999, 38899.34000000
1610092799999, 38948.60000000
1610093699999, 38708.17000000
1610094599999, 38828.55000000
1610095499999, 38526.45000000
1610096399999, 38675.11000000
1610097299999, 38306.81000000
1610098199999, 38798.16000000
1610099099999, 38876.23000000
1610099999999, 39400.00000000
1610100899999, 39634.35000000
1610101799999, 39972.13000000
1610102699999, 40640.92000000
1610103599999, 40759.35000000
1610104499999, 41343.47000000
1610105399999, 41206.32000000
1610106299999, 41202.61000000
1610107199999, 41330.89000000
1610108099999, 41663.62000000
1610108999999, 41617.79000000
1610109899999, 41569.59000000
1610110799999, 41367.09000000
1610111699999, 41033.66000000
1610112599999, 41382.05000000
1610113499999, 41479.93000000
1610114399999, 41367.47000000
1610115299999, 41385.50000000
1610116199999, 41254.76000000
1610117099999, 41372.05000000
1610117999999, 41498.76000000
1610118899999, 41166.29000000
1610119799999, 40550.00000000
1610120699999, 40677.65000000
1610121599999, 40874.60000000
1610122499999, 40745.87000000
1610123399999, 41188.40000000
1610124299999, 41466.00000000
1610125199999, 41341.08000000
1610126099999, 41476.21000000
1610126999999, 41294.57000000
1610127899999, 41126.80000000
1610128799999, 41036.22000000
1610129699999, 40725.35000000
1610130599999, 40223.84000000
1610131499999, 40372.44000000
1610132399999, 39966.78000000
1610133299999, 40440.71000000
1610134199999, 40218.41000000
1610135099999, 40304.96000000
1610135999999, 40363.52000000
1610136899999, 39960.83000000
1610137799999, 39647.41000000
1610138699999, 39164.13000000
1610139599999, 39071.98000000
1610140499999, 39546.80000000
1610141399999, 39692.66000000
1610142299999, 39768.39000000
1610143199999, 40080.00000000
1610144099999, 39950.79000000
1610144999999, 40119.12000000
1610145899999, 40597.00000000
1610146799999, 40699.17000000
1610147699999, 40660.24000000
1610148599999, 40830.44000000
1610149499999, 40747.27000000
1610150399999, 40610.16000000
1610151299999, 40802.84000000
1610152199999, 40796.86000000
1610153099999, 40307.71000000
1610153999999, 40318.15000000
1610154899999, 40279.19000000
1610155799999, 40165.88000000
1610156699999, 40022.19000000
1610157599999, 40221.28000000
1610158499999, 40433.25000000
1610159399999, 40286.24000000
1610160299999, 39745.54000000
1610161199999, 39999.99000000
1610162099999, 40048.57000000
1610162999999, 40244.03000000
1610163899999, 40194.54000000
1610164799999, 40245.84000000
1610165699999, 39985.33000000
1610166599999, 40230.76000000
1610167499999, 40352.99000000
1610168399999, 40245.08000000
1610169299999, 40001.15000000
1610170199999, 39745.43000000
1610171099999, 39871.13000000
1610171999999, 39336.41000000
1610172899999, 39501.60000000
1610173799999, 39202.49000000
1610174699999, 39083.36000000
1610175599999, 39012.20000000
1610176499999, 39188.08000000
1610177399999, 39418.85000000
1610178299999, 39582.00000000
1610179199999, 39672.76000000
1610180099999, 39787.00000000
1610180999999, 39554.15000000
1610181899999, 40049.42000000
1610182799999, 40210.38000000
1610183699999, 40666.79000000
1610184599999, 40573.71000000
1610185499999, 40433.65000000
1610186399999, 40384.95000000
1610187299999, 40254.65000000
1610188199999, 40660.84000000
1610189099999, 40498.99000000
1610189999999, 40431.01000000
1610190899999, 40494.12000000
1610191799999, 41113.19000000
1610192699999, 41029.22000000
1610193599999, 40621.39000000
1610194499999, 40845.00000000
1610195399999, 40731.01000000
1610196299999, 40656.53000000
1610197199999, 40928.87000000
1610198099999, 40870.22000000
1610198999999, 40945.90000000
1610199899999, 41098.34000000
1610200799999, 41110.06000000
1610201699999, 41341.65000000
1610202599999, 41139.39000000
1610203499999, 41007.13000000
1610204399999, 40883.32000000
1610205299999, 40365.10000000
1610206199999, 40611.15000000
1610207099999, 40784.15000000
1610207999999, 40603.07000000
1610208899999, 40431.55000000
1610209799999, 40193.29000000
1610210699999, 40321.44000000
1610211599999, 40083.07000000
1610212499999, 40466.03000000
1610213399999, 40528.80000000
1610214299999, 40617.34000000
1610215199999, 40509.06000000
1610216099999, 40753.41000000
1610216999999, 40745.13000000
1610217899999, 40763.82000000
1610218799999, 40734.39000000
1610219699999, 40847.94000000
1610220599999, 40900.53000000
1610221499999, 40765.38000000
1610222399999, 40760.90000000
1610223299999, 40346.84000000
1610224199999, 40608.63000000
1610225099999, 40550.00000000
1610225999999, 40733.63000000
1610226899999, 40778.74000000
1610227799999, 40824.79000000
1610228699999, 40712.13000000
1610229599999, 40856.19000000
1610230499999, 40706.60000000
1610231399999, 40540.00000000
1610232299999, 40365.64000000
1610233199999, 40412.48000000
1610234099999, 40254.35000000
1610234999999, 40377.75000000
1610235899999, 40415.50000000
1610236799999, 40239.25000000
1610237699999, 40551.04000000
1610238599999, 40640.54000000
1610239499999, 40768.87000000
1610240399999, 40683.84000000
1610241299999, 40718.25000000
1610242199999, 41299.53000000
1610243099999, 41382.81000000
1610243999999, 41248.32000000
1610244899999, 41163.10000000
1610245799999, 40961.21000000
1610246699999, 41145.99000000
1610247599999, 41070.18000000
1610248499999, 40810.40000000
1610249399999, 40578.29000000
1610250299999, 40600.91000000
1610251199999, 40450.02000000
1610252099999, 40720.86000000
1610252999999, 40497.61000000
1610253899999, 40321.55000000
1610254799999, 40450.73000000
1610255699999, 40557.28000000
1610256599999, 40675.79000000
1610257499999, 40585.55000000
1610258399999, 40553.39000000
1610259299999, 40810.00000000
1610260199999, 40774.43000000
1610261099999, 41072.16000000
1610261999999, 41020.69000000
1610262899999, 41135.63000000
1610263799999, 41002.25000000
1610264699999, 40870.05000000
1610265599999, 41089.00000000
1610266499999, 40877.55000000
1610267399999, 40755.92000000
1610268299999, 40834.49000000
1610269199999, 40904.70000000
1610270099999, 41113.87000000
1610270999999, 41012.91000000
1610271899999, 40939.68000000
1610272799999, 40855.06000000
1610273699999, 40851.86000000
1610274599999, 40480.65000000
1610275499999, 40540.22000000
1610276399999, 40511.38000000
1610277299999, 40228.89000000
1610278199999, 39390.67000000
1610279099999, 39374.02000000
1610279999999, 39250.00000000
1610280899999, 39561.58000000
1610281799999, 39700.16000000
1610282699999, 39572.67000000
1610283599999, 39604.90000000
1610284499999, 39936.55000000
1610285399999, 39989.71000000
1610286299999, 39908.96000000
1610287199999, 39860.14000000
1610288099999, 39746.00000000
1610288999999, 39830.22000000
1610289899999, 39560.10000000
1610290799999, 39483.09000000
1610291699999, 39528.08000000
1610292599999, 39796.33000000
1610293499999, 39865.90000000
1610294399999, 39721.63000000
1610295299999, 39678.57000000
1610296199999, 39445.02000000
1610297099999, 39415.39000000
1610297999999, 39286.57000000
1610298899999, 39033.51000000
1610299799999, 38196.09000000
1610300699999, 37762.90000000
1610301599999, 38614.23000000
1610302499999, 38611.53000000
1610303399999, 38077.54000000
1610304299999, 38115.68000000
1610305199999, 38108.75000000
1610306099999, 38500.35000000
1610306999999, 38265.30000000
1610307899999, 37840.97000000
1610308799999, 37452.53000000
1610309699999, 36770.72000000
1610310599999, 35821.50000000
1610311499999, 37350.01000000
1610312399999, 37728.90000000
1610313299999, 37946.26000000
1610314199999, 37584.84000000
1610315099999, 37823.56000000
1610315999999, 38047.13000000
1610316899999, 38715.53000000
1610317799999, 38836.21000000
1610318699999, 38839.22000000
1610319599999, 38446.70000000
1610320499999, 38506.02000000
1610321399999, 38298.30000000
1610322299999, 38478.24000000
1610323199999, 38162.04000000
1610324099999, 37586.87000000
1610324999999, 37610.11000000
1610325899999, 37227.12000000
1610326799999, 37196.92000000
1610327699999, 37678.29000000
1610328599999, 37706.57000000
1610329499999, 37159.17000000
1610330399999, 37233.18000000
1610331299999, 36791.69000000
1610332199999, 36621.26000000
1610333099999, 37027.12000000
1610333999999, 36334.60000000
1610334899999, 35630.05000000
1610335799999, 35324.41000000
1610336699999, 34096.18000000
1610337599999, 35401.15000000
1610338499999, 35807.65000000
1610339399999, 34647.98000000
1610340299999, 35135.23000000
1610341199999, 35527.40000000
1610342099999, 35672.08000000
1610342999999, 35617.59000000
1610343899999, 34863.59000000
1610344799999, 34870.86000000
1610345699999, 33683.95000000
1610346599999, 34274.33000000
1610347499999, 33471.43000000
1610348399999, 32812.67000000
1610349299999, 32958.89000000
1610350199999, 33661.80000000
1610351099999, 34464.96000000
1610351999999, 34329.21000000
1610352899999, 35303.37000000
1610353799999, 35250.87000000
1610354699999, 35743.03000000
1610355599999, 35412.28000000
1610356499999, 35116.52000000
1610357399999, 35534.45000000
1610358299999, 35167.02000000
1610359199999, 35743.92000000
1610360099999, 36171.30000000
1610360999999, 35683.74000000
1610361899999, 35404.43000000
1610362799999, 35362.19000000
1610363699999, 34706.28000000
1610364599999, 34597.55000000
1610365499999, 34900.00000000
1610366399999, 34149.38000000
1610367299999, 33638.13000000
1610368199999, 34837.43000000
1610369099999, 34624.94000000
1610369999999, 34237.17000000
1610370899999, 33953.49000000
1610371799999, 33344.92000000
1610372699999, 33588.28000000
1610373599999, 32779.32000000
1610374499999, 31007.00000000
1610375399999, 33013.92000000
1610376299999, 33338.68000000
1610377199999, 33252.93000000
1610378099999, 32738.39000000
1610378999999, 32630.98000000
1610379899999, 31889.00000000
1610380799999, 31518.58000000
1610381699999, 30713.00000000
1610382599999, 31080.00000000
1610383499999, 30491.66000000
1610384399999, 31705.44000000
1610385299999, 31118.28000000
1610386199999, 32569.90000000
1610387099999, 33002.51000000
1610387999999, 32805.39000000
1610388899999, 32821.25000000
1610389799999, 32968.92000000
1610390699999, 33162.82000000
1610391599999, 32528.64000000
1610392499999, 31697.99000000
1610393399999, 31357.06000000
1610394299999, 32133.31000000
1610395199999, 32231.94000000
1610396099999, 31574.37000000
1610396999999, 31771.97000000
1610397899999, 32196.77000000
1610398799999, 33398.36000000
1610399699999, 33921.73000000
1610400599999, 34420.10000000
1610401499999, 34161.67000000
1610402399999, 33958.69000000
1610403299999, 34341.04000000
1610404199999, 34617.42000000
1610405099999, 34483.15000000
1610405999999, 34364.74000000
1610406899999, 34939.36000000
1610407799999, 35074.57000000
1610408699999, 35357.09000000
1610409599999, 35427.77000000
1610410499999, 34787.53000000
1610411399999, 34586.06000000
1610412299999, 35132.04000000
1610413199999, 34937.30000000
1610414099999, 35372.06000000
1610414999999, 34973.33000000
1610415899999, 34418.38000000
1610416799999, 34298.78000000
1610417699999, 33787.68000000
1610418599999, 33894.37000000
1610419499999, 34335.46000000
1610420399999, 34382.96000000
1610421299999, 34272.42000000
1610422199999, 34962.01000000
1610423099999, 34822.03000000
1610423999999, 34993.56000000
1610424899999, 34950.57000000
1610425799999, 34921.99000000
1610426699999, 34781.98000000
1610427599999, 35299.17000000
1610428499999, 35364.29000000
1610429399999, 35099.30000000
1610430299999, 35296.60000000
1610431199999, 35899.16000000
1610432099999, 35775.12000000
1610432999999, 36241.16000000
1610433899999, 36092.53000000
1610434799999, 36009.91000000
1610435699999, 35790.34000000
1610436599999, 35821.11000000
1610437499999, 36606.61000000
1610438399999, 36440.32000000
1610439299999, 36137.20000000
1610440199999, 36122.89000000
1610441099999, 36190.96000000
1610441999999, 35799.28000000
1610442899999, 35957.38000000
1610443799999, 35834.09000000
1610444699999, 36043.68000000
1610445599999, 35932.54000000
1610446499999, 35342.25000000
1610447399999, 34868.74000000
1610448299999, 35142.08000000
1610449199999, 35067.47000000
1610450099999, 35451.66000000
1610450999999, 35571.42000000
1610451899999, 35282.05000000
1610452799999, 35396.15000000
1610453699999, 35638.11000000
1610454599999, 35331.20000000
1610455499999, 34969.55000000
1610456399999, 35003.81000000
1610457299999, 35270.49000000
1610458199999, 34555.14000000
1610459099999, 33916.68000000
1610459999999, 33231.16000000
1610460899999, 33780.37000000
1610461799999, 32888.62000000
1610462699999, 33209.12000000
1610463599999, 33400.73000000
1610464499999, 33690.47000000
1610465399999, 34065.90000000
1610466299999, 33840.21000000
1610467199999, 33821.90000000
1610468099999, 34395.67000000
1610468999999, 34555.33000000
1610469899999, 34644.21000000
1610470799999, 34979.92000000
1610471699999, 35080.28000000
1610472599999, 34603.36000000
1610473499999, 34681.86000000
1610474399999, 34998.99000000
1610475299999, 35354.06000000
1610476199999, 35307.47000000
1610477099999, 35043.30000000
1610477999999, 35026.09000000
1610478899999, 34858.80000000
1610479799999, 34548.04000000
1610480699999, 34242.49000000
1610481599999, 34655.94000000
1610482499999, 34292.45000000
1610483399999, 34199.75000000
1610484299999, 33929.03000000
1610485199999, 34265.57000000
1610486099999, 34342.74000000
1610486999999, 34092.99000000
1610487899999, 34257.77000000
1610488799999, 34713.93000000
1610489699999, 34764.48000000
1610490599999, 34370.66000000
1610491499999, 34178.56000000
1610492399999, 33719.92000000
1610493299999, 33952.43000000
1610494199999, 33439.93000000
1610495099999, 33808.31000000
1610495999999, 34029.14000000
1610496899999, 33805.07000000
1610497799999, 33053.95000000
1610498699999, 33147.20000000
1610499599999, 32500.00000000
1610500499999, 33102.77000000
1610501399999, 32575.65000000
1610502299999, 32650.88000000
1610503199999, 33094.54000000
1610504099999, 33191.73000000
1610504999999, 32772.40000000
1610505899999, 32810.15000000
1610506799999, 33006.55000000
1610507699999, 34034.18000000
1610508599999, 33894.62000000
1610509499999, 33826.95000000
1610510399999, 33789.28000000
1610511299999, 33643.52000000
1610512199999, 33688.54000000
1610513099999, 33208.66000000
1610513999999, 33161.15000000
1610514899999, 33448.17000000
1610515799999, 33015.16000000
1610516699999, 33067.49000000
1610517599999, 33297.15000000
1610518499999, 33510.60000000
1610519399999, 33809.14000000
1610520299999, 33955.60000000
1610521199999, 33761.50000000
1610522099999, 33922.91000000
1610522999999, 34593.30000000
1610523899999, 34814.65000000
1610524799999, 34969.55000000
1610525699999, 34714.28000000
1610526599999, 34627.56000000
1610527499999, 34589.98000000
1610528399999, 34500.69000000
1610529299999, 34739.27000000
1610530199999, 34697.74000000
1610531099999, 34289.01000000
1610531999999, 34331.52000000
1610532899999, 34760.63000000
1610533799999, 34736.67000000
1610534699999, 34596.74000000
1610535599999, 34901.35000000
1610536499999, 34619.60000000
1610537399999, 34845.09000000
1610538299999, 34592.02000000
1610539199999, 34367.57000000
1610540099999, 34227.94000000
1610540999999, 34139.18000000
1610541899999, 34341.70000000
1610542799999, 34240.68000000
1610543699999, 34119.42000000
