Date,Open,Close,High,Low
01/01/20,36.7872,37.0774,37.5015,36.697
01/02/20,37.0836,35.2812,37.3314,35.2082
01/03/20,35.2825,37.6859,37.8316,34.8129
01/04/20,37.7509,38.3573,38.3985,37.4619
01/05/20,38.3477,38.83,39.8614,38.1891
01/06/20,38.8202,40.9157,41.0861,38.5578
01/07/20,40.8961,41.6073,41.8525,39.9643
01/08/20,41.5861,40.7853,43.6204,39.8926
01/09/20,40.7956,40.3826,41.1872,39.5869
01/10/20,40.3763,43.9675,44.41,39.4817
01/11/20,44.0357,44.4657,46.5648,43.1746
01/12/20,44.398,46.051,46.2185,43.9897
01/13/20,46.1535,44.5528,46.2905,43.9618
01/14/20,44.5375,52.6191,54.3372,44.5709
01/15/20,52.6031,52.1925,53.9328,49.7699
01/16/20,52.1771,51.7772,52.4821,49.4052
01/17/20,51.7626,55.1399,56.932,51.234
01/18/20,55.0342,53.4418,56.1949,52.5251
01/19/20,53.4582,52.0488,56.0442,50.2662
01/20/20,52.0209,51.5389,52.4204,50.3632
01/21/20,51.5396,51.9811,52.2666,50.6226
01/22/20,51.9805,52.5495,53.2937,51.5627
01/23/20,52.5569,49.3048,52.7646,47.7732
01/24/20,49.3007,49.3423,50.117,46.0646
01/25/20,49.3432,48.3276,49.3446,47.5079
01/26/20,48.3059,50.9548,51.1629,47.9617
01/27/20,50.9662,53.1499,53.9798,50.7977
01/28/20,53.15,55.0304,55.7695,52.1676
01/29/20,55.0051,54.2932,56.5868,54.0656
01/30/20,54.3047,61.6094,63.5294,52.8703
01/31/20,61.6041,61.7885,62.7547,59.1336
02/01/20,64.2073,63.7943,65.4044,60.9953
02/02/20,63.786,63.1544,66.0627,61.3951
02/03/20,63.0862,63.0636,65.8252,62.1599
02/04/20,63.0554,61.577,63.7405,60.4479
02/05/20,61.5758,65.9614,66.6639,61.5107
02/06/20,65.981,66.962,68.2812,64.6576
02/07/20,66.9697,67.9071,68.8431,66.6609
02/08/20,67.8797,69.9594,71.0667,65.4518
02/09/20,69.9688,70.364,71.6212,68.6961
02/10/20,70.3759,67.9476,70.9503,66.3639
02/11/20,67.9245,70.2237,70.8552,66.5576
02/12/20,70.2216,74.7985,76.1436,70.532
02/13/20,74.7208,74.3274,77.6161,71.4064
02/14/20,74.3347,76.7029,77.3616,72.7456
02/15/20,76.7405,70.7741,77.072,69.4705
02/16/20,70.7961,69.0291,74.4006,62.7225
02/17/20,68.9911,67.6228,69.5078,63.5114
02/18/20,67.6124,71.399,73.0196,65.1129
02/19/20,71.4647,65.5723,72.9931,63.1105
02/20/20,65.4947,64.3619,66.9601,61.7772
02/21/20,64.4299,67.656,69.3648,63.334
02/22/20,67.5975,69.0434,70.7024,66.8097
02/23/20,68.9959,73.7713,73.9136,69.0598
02/24/20,73.6094,69.7058,73.617,66.1907
02/25/20,69.6593,65.2368,69.8736,64.2121
02/26/20,65.2467,55.8055,66.2786,53.6434
02/27/20,55.3032,56.0016,59.0777,52.0554
02/28/20,56.1225,54.3654,57.4913,51.6574
02/29/20,54.6649,52.6608,55.8917,52.6171
03/01/20,52.8423,52.3866,54.505,50.9729
03/02/20,52.1543,55.1827,55.983,51.4928
03/03/20,55.0998,54.5674,55.7912,53.3491
03/04/20,54.6692,54.1607,55.4717,52.9096
03/05/20,54.2998,55.2919,56.2856,53.6828
03/06/20,55.2275,55.9962,56.5143,54.3015
03/07/20,56.1956,53.5459,56.5601,53.2852
03/08/20,53.3328,44.7069,53.1374,44.6916
03/09/20,45.3016,44.1263,45.707,40.8785
03/10/20,44.3272,44.3414,45.4314,43.4005
03/11/20,44.4054,43.1395,45.0477,40.5574
03/12/20,43.2121,26.5672,43.6081,26.207
03/13/20,28.4203,33.8333,36.0288,22.5209
03/14/20,33.609,30.7746,33.9089,30.43
03/15/20,30.9139,32.5864,34.6605,30.5751
03/16/20,32.5148,29.6401,32.5853,26.4079
03/17/20,29.7714,31.2023,32.5824,29.5901
03/18/20,31.3533,31.6814,31.8457,29.7538
03/19/20,32.1473,36.6299,38.1622,31.9877
03/20/20,36.7536,35.5362,40.47,32.3486
03/21/20,35.4134,35.6174,36.9831,33.9731
03/22/20,35.5479,33.319,37.2201,32.9274
03/23/20,33.1189,36.3027,36.8707,32.6059
03/24/20,36.4984,37.5766,37.87,35.5375
03/25/20,37.3757,36.1222,37.6211,35.175
03/26/20,36.4668,36.6855,36.7024,34.9241
03/27/20,36.8143,34.1821,36.931,34.0274
03/28/20,33.4831,34.9031,35.3388,32.9242
03/29/20,35.0325,33.481,35.2209,33.3645
03/30/20,33.5109,35.2658,35.8847,33.5926
03/31/20,35.2439,35.5351,35.6672,34.9112
04/01/20,35.5349,35.1311,35.8717,35.0756
04/02/20,36.0301,36.8143,39.2629,36.069
04/03/20,36.7506,37.4596,38.183,36.7836
04/04/20,37.4544,37.7548,38.1201,37.0673
04/05/20,37.7767,37.3532,37.9215,36.9659
04/06/20,37.309,41.7082,41.7083,37.4108
04/07/20,41.829,41.0873,43.73,40.3001
04/08/20,41.1089,42.851,43.4597,40.7986
04/09/20,42.8155,42.3473,42.8607,41.0193
04/10/20,42.396,38.6769,42.4199,37.5201
04/11/20,38.7592,38.8779,39.4606,37.9472
04/12/20,38.9726,38.4923,39.8977,38.3133
04/13/20,38.2196,37.8156,38.5748,36.4793
04/14/20,37.9213,37.4887,38.1026,36.952
04/15/20,37.4261,36.0439,38.2649,35.9932
04/16/20,35.4833,39.1243,40.0357,35.1091
04/17/20,39.2392,38.8861,39.5176,38.3282
04/18/20,38.943,40.6082,40.8458,38.6797
04/19/20,40.7261,38.8938,40.7867,38.5086
04/20/20,38.8298,37.1339,39.8096,36.543
04/21/20,37.0662,37.4578,38.0597,37.0108
04/22/20,37.4475,38.6549,39.072,37.2855
04/23/20,38.6942,39.808,40.6314,38.0827
04/24/20,39.9229,41.1059,41.5007,39.6327
04/25/20,41.0799,41.039,42.0906,40.6309
04/26/20,40.9644,41.2448,41.8919,40.6182
04/27/20,41.283,41.1176,41.7229,40.0876
04/28/20,41.0753,42.2307,42.5702,40.1777
04/29/20,42.4144,44.8714,45.8407,42.0364
04/30/20,44.8389,42.2938,46.4356,41.9257
05/01/20,42.4827,42.3984,43.4839,41.7584
05/02/20,42.4097,44.442,44.6953,42.1766
05/03/20,44.4219,43.8451,45.5718,42.879
05/04/20,43.8702,43.0975,44.1703,41.4846
05/05/20,43.1524,42.8613,44.0553,42.3672
05/06/20,42.9684,41.6621,44.0257,41.6118
05/07/20,41.2744,43.7192,44.4345,41.1593
05/08/20,43.8141,43.579,44.1654,42.3253
05/09/20,43.284,42.8651,44.782,42.8477
05/10/20,42.7668,38.9977,43.4221,37.0804
05/11/20,38.8676,38.7351,39.6583,36.6507
05/12/20,38.4363,38.868,39.4538,38.1387
05/13/20,38.8551,39.9902,40.4333,38.8002
05/14/20,39.9877,40.7268,41.0608,39.2315
05/15/20,40.8074,39.4499,40.7588,38.8512
05/16/20,39.542,39.9714,40.5083,39.3089
05/17/20,39.8864,40.3527,41.0662,39.8499
05/18/20,40.3384,41.5048,42.6968,39.9853
05/19/20,41.4537,41.8967,41.8985,40.4683
05/20/20,41.8411,40.3015,42.0146,39.4933
05/21/20,40.2555,39.0127,40.7193,38.1365
05/22/20,38.9537,40.5548,40.9518,38.8955
05/23/20,40.6456,40.2395,41.0045,40.1307
05/24/20,40.2022,38.8217,40.8409,38.819
05/25/20,38.4291,39.4113,39.7125,38.4872
05/26/20,39.4203,38.5213,39.2075,38.111
05/27/20,38.4892,39.7683,39.956,38.3736
05/28/20,39.8326,40.3533,40.5088,39.0153
05/29/20,40.4613,40.0477,40.7167,39.8159
05/30/20,40.0918,42.9387,43.1397,39.8085
05/31/20,42.9965,41.0708,42.9745,40.6348
06/01/20,40.8573,43.3016,43.7464,40.7659
06/02/20,43.2943,41.1378,44.6686,40.1287
06/03/20,41.1687,41.933,42.244,40.4323
06/04/20,42.0129,41.8458,42.4061,41.0062
06/05/20,41.8516,41.5177,42.4579,41.2961
06/06/20,41.3663,41.4337,41.7806,40.981
06/07/20,41.4146,41.233,41.5557,40.0591
06/08/20,41.2743,41.1079,41.4205,40.7334
06/09/20,41.3025,40.4857,41.262,40.0783
06/10/20,40.4508,41.0166,41.3383,40.153
06/11/20,41.0273,38.3692,41.4922,37.4253
06/12/20,38.1354,39.7404,40.2559,38.0576
06/13/20,39.7169,40.0557,40.1368,39.3571
06/14/20,40.0375,39.1663,40.0983,38.7976
06/15/20,39.1072,38.6244,38.8838,36.9275
06/16/20,38.6399,38.953,39.2397,38.5817
06/17/20,38.9678,39.1834,39.9559,38.3552
06/18/20,39.2059,38.7657,39.428,38.2576
06/19/20,38.7008,38.3139,39.0242,38.2474
06/20/20,38.3313,38.9778,39.2049,38.1464
06/21/20,38.9995,38.4342,39.175,38.3933
06/22/20,38.422,39.3478,39.5882,38.105
06/23/20,39.3364,39.039,39.3109,38.839
06/24/20,39.0346,37.8781,39.6493,37.4615
06/25/20,37.8664,37.7417,38.2692,37.1791
06/26/20,37.736,38.4377,38.7949,36.9617
06/27/20,38.4219,36.6249,38.4296,35.193
06/28/20,36.6016,36.8706,37.43,36.0845
06/29/20,36.8819,37.2178,37.5496,36.1142
06/30/20,37.2698,36.6664,37.3911,36.2933
07/01/20,36.6437,37.1024,37.3268,36.4456
07/02/20,37.1301,36.521,37.2647,35.9271
07/03/20,36.5217,36.5966,37.0572,36.4003
07/04/20,36.5685,37.4248,37.5297,36.5517
07/05/20,37.4659,37.0656,37.5209,36.3202
07/06/20,37.0389,38.9957,39.0513,36.7287
07/07/20,38.9307,38.4828,39.4063,38.2254
07/08/20,38.517,39.9833,40.2213,38.0572
07/09/20,40.0158,39.3037,40.6195,38.6412
07/10/20,39.3097,39.1954,39.4236,38.5618
07/11/20,39.2154,39.5207,39.5896,38.885
07/12/20,39.5583,39.541,40.0095,38.852
07/13/20,39.5733,38.7207,40.1554,37.8496
07/14/20,38.6851,38.4797,38.6074,37.605
07/15/20,38.4647,37.9672,38.6002,37.6259
07/16/20,37.962,36.9374,38.1701,36.1864
07/17/20,36.9719,36.6787,37.1283,36.5161
07/18/20,36.6322,37.176,37.4881,36.5377
07/19/20,37.1702,37.2812,37.45,36.6336
